Country,ISO3,Year,Phase,Total population (WB),Population at risk (CC),Population under surveillance (WHO),Reported cases (GHO),Villages under surveillance (WHO),Number of villages reporting cases (GHO),Historical CC financial costs,Historical CC financial costs (capital only),Projected CC financial costs,Projected CC financial costs (capital/equipment only),Projected CC financial costs total (TCC and WHO)
cnt,iso,yr,pha,pop_WHO,par_CC,pus_WHO,cases,vus_WHO,nvrc_GHO,fin_CC,fin_cap_CC,fin_proj_CC,fin_cap_proj_CC,fin_proj_CC_WHO
Benin,BEN,1980,Endemic,3718024,,,,,,,,,,
Benin,BEN,1981,Endemic,3822206,,,,,,,,,,
Benin,BEN,1982,Endemic,3931355,,,,,,,,,,
Benin,BEN,1983,Endemic,4045352,,,,,,,,,,
Benin,BEN,1984,Endemic,4163968,,,,,,,,,,
Benin,BEN,1985,Endemic,4287263,,,,,,,,,,
Benin,BEN,1986,Endemic,4414450,,,,,,,,,,
Benin,BEN,1987,Endemic,4546136,,,400,,,,,,,
Benin,BEN,1988,Endemic,4685375,,,13892,,,,,,,
Benin,BEN,1989,Endemic,4836240,,,7172,,,,,,,
Benin,BEN,1990,Endemic,5001271,,,37414,,,,,,,
Benin,BEN,1991,Endemic,5182525,,,4006,,,,,,,
Benin,BEN,1992,Endemic,5378226,,,4315,,,,,,,
Benin,BEN,1993,Endemic,5582420,,,16334,,,,,,,
Benin,BEN,1994,Endemic,5786794,,,4302,,,,,,,
Benin,BEN,1995,Endemic,5985658,,,2273,,491,,,,,
Benin,BEN,1996,Endemic,6176318,,,1427,,325,,,,,
Benin,BEN,1997,Endemic,6361301,,,855,,212,,,,,
Benin,BEN,1998,Endemic,6546493,,,695,,179,,,,,
Benin,BEN,1999,Endemic,6740491,,,492,,135,,,,,
Benin,BEN,2000,Endemic,6949366,,,186,,61,,,,,
Benin,BEN,2001,Endemic,7174911,,,172,,39,,,,,
Benin,BEN,2002,Endemic,7414744,,,181,,31,,,,,
Benin,BEN,2003,Endemic,7665681,,,30,,13,,,,,
Benin,BEN,2004,Endemic,7922796,,,3,,1,,,,,
Benin,BEN,2005,Precertification stage,8182362,,,1,,1,,,,,
Benin,BEN,2006,Precertification stage,8443717,,,0,,0,,,,,
Benin,BEN,2007,Precertification stage,8707637,,,0,4,0,,,,,
Benin,BEN,2008,Precertification stage,8973525,,,0,,0,,,,,
Benin,BEN,2009,Precertification stage,9240982,,,0,,0,,,,,
Benin,BEN,2010,Certified free,9509798,,,0,,0,,,,,
Benin,BEN,2011,Certified free,9779391,,,0,,0,,,,,
Benin,BEN,2012,Certified free,10049792,,,0,,0,,,,,
Benin,BEN,2013,Certified free,10322232,,,0,,0,,,,,
Benin,BEN,2014,Certified free,10598482,,,0,,0,,,,,
Benin,BEN,2015,Certified free,10879829,,,0,,0,,,,,
Benin,BEN,2016,Certified free,,,,,,,,,,,
Benin,BEN,2017,Certified free,,,,,,,,,,,
Benin,BEN,2018,Certified free,,,,,,,,,,,
Benin,BEN,2019,Certified free,,,,,,,,,,,
Benin,BEN,2020,Certified free,,,,,,,,,,,
Burkina Faso,BFA,1980,Endemic,6822840,,,,,,,,,,
Burkina Faso,BFA,1981,Endemic,6985158,,,,,,,,,,
Burkina Faso,BFA,1982,Endemic,7158256,,,,,,,,,,
Burkina Faso,BFA,1983,Endemic,7340907,,,,,,,,,,
Burkina Faso,BFA,1984,Endemic,7531244,,,,,,,,,,
Burkina Faso,BFA,1985,Endemic,7727912,,,,,,,,,,
Burkina Faso,BFA,1986,Endemic,7930690,,,2558,,,,,,,
Burkina Faso,BFA,1987,Endemic,8140076,,,1957,,,,,,,
Burkina Faso,BFA,1988,Endemic,8356306,,,1069,,,,,,,
Burkina Faso,BFA,1989,Endemic,8579825,,,45004,,,,,,,
Burkina Faso,BFA,1990,Endemic,8811033,,,42187,,,,,,,
Burkina Faso,BFA,1991,Endemic,9050090,,,0,,,,,,,
Burkina Faso,BFA,1992,Endemic,9297116,,,11784,,,,,,,
Burkina Faso,BFA,1993,Endemic,9552473,,,8281,,,,,,,
Burkina Faso,BFA,1994,Endemic,9816586,,,6861,,,,,,,
Burkina Faso,BFA,1995,Endemic,10089876,,,6281,,516,,,,,
Burkina Faso,BFA,1996,Endemic,10372809,,,3241,,348,,,,,
Burkina Faso,BFA,1997,Endemic,10665781,,,2477,,211,,,,,
Burkina Faso,BFA,1998,Endemic,10969093,,,2227,,236,,,,,
Burkina Faso,BFA,1999,Endemic,11283016,,,2184,,198,,,,,
Burkina Faso,BFA,2000,Endemic,11607944,,,1956,,352,,,,,
Burkina Faso,BFA,2001,Endemic,11943740,,,1032,,202,,,,,
Burkina Faso,BFA,2002,Endemic,12290984,,,591,,129,,,,,
Burkina Faso,BFA,2003,Endemic,12651596,,,203,,69,,,,,
Burkina Faso,BFA,2004,Endemic,13028039,,,60,,33,,,,,
Burkina Faso,BFA,2005,Endemic,13421929,,,30,,12,,,,,
Burkina Faso,BFA,2006,Endemic,13834195,,,5,,4,,,,,
Burkina Faso,BFA,2007,Endemic,14264002,,,3,,3,,,,,
Burkina Faso,BFA,2008,Precertification stage,14709011,59741,,1,,1,32066,,,,
Burkina Faso,BFA,2009,Precertification stage,15165856,,,0,,0,0,,,,
Burkina Faso,BFA,2010,Precertification stage,15632066,,,0,,0,0,,,,
Burkina Faso,BFA,2011,Precertification stage,16106851,,,0,,0,0,,,,
Burkina Faso,BFA,2012,Certified free,16590813,,,0,,0,0,,,,
Burkina Faso,BFA,2013,Certified free,17084554,,,0,,0,0,,,,
Burkina Faso,BFA,2014,Certified free,17589198,,,0,,0,0,,,,
Burkina Faso,BFA,2015,Certified free,18105570,,,0,,0,0,,,,
Burkina Faso,BFA,2016,Certified free,,,,,,,,,,,
Burkina Faso,BFA,2017,Certified free,,,,,,,,,,,
Burkina Faso,BFA,2018,Certified free,,,,,,,,,,,
Burkina Faso,BFA,2019,Certified free,,,,,,,,,,,
Burkina Faso,BFA,2020,Certified free,,,,,,,,,,,
Cameroon,CMR,1980,Endemic,8932121,,,,,,,,,,
Cameroon,CMR,1981,Endemic,9201146,,,,,,,,,,
Cameroon,CMR,1982,Endemic,9480638,,,,,,,,,,
Cameroon,CMR,1983,Endemic,9770555,,,,,,,,,,
Cameroon,CMR,1984,Endemic,10070779,,,,,,,,,,
Cameroon,CMR,1985,Endemic,10381098,,,,,,,,,,
Cameroon,CMR,1986,Endemic,10701458,,,86,,,,,,,
Cameroon,CMR,1987,Endemic,11031515,,,,,,,,,,
Cameroon,CMR,1988,Endemic,11370394,,,752,,,,,,,
Cameroon,CMR,1989,Endemic,11716975,,,871,,,,,,,
Cameroon,CMR,1990,Endemic,12070359,,,742,,,,,,,
Cameroon,CMR,1991,Endemic,12430311,,,393,,,,,,,
Cameroon,CMR,1992,Endemic,12796739,,,127,,,,,,,
Cameroon,CMR,1993,Endemic,13169100,,,72,,,,,,,
Cameroon,CMR,1994,Endemic,13546823,,,30,,,,,,,
Cameroon,CMR,1995,Endemic,13929575,,,15,,8,,,,,
Cameroon,CMR,1996,Endemic,14317191,,,17,,13,,,,,
Cameroon,CMR,1997,Endemic,14709961,,,19,,1,,,,,
Cameroon,CMR,1998,Endemic,15108630,,,23,,,,,,,
Cameroon,CMR,1999,Precertification stage,15514249,,,8,,,,,,,
Cameroon,CMR,2000,Precertification stage,15927713,,,5,,3,,,,,
Cameroon,CMR,2001,Precertification stage,16349364,,,5,,,,,,,
Cameroon,CMR,2002,Precertification stage,16779434,,,3,,,,,,,
Cameroon,CMR,2003,Precertification stage,17218591,,,0,,0,,,,,
Cameroon,CMR,2004,Precertification stage,17667576,,,0,,0,,,,,
Cameroon,CMR,2005,Precertification stage,18126999,,,0,,0,,,,,
Cameroon,CMR,2006,Precertification stage,18597109,,,0,,0,,,,,
Cameroon,CMR,2007,Precertification stage,19078100,,,0,,0,,,,,
Cameroon,CMR,2008,Certified free,19570418,,,0,,0,,,,,
Cameroon,CMR,2009,Certified free,20074522,,,0,,0,,,,,
Cameroon,CMR,2010,Certified free,20590666,,,0,,0,,,,,
Cameroon,CMR,2011,Certified free,21119065,,,0,,0,,,,,
Cameroon,CMR,2012,Certified free,21659488,,,0,,0,,,,,
Cameroon,CMR,2013,Certified free,22211166,,,0,,0,,,,,
Cameroon,CMR,2014,Certified free,22773014,,,0,,0,,,,,
Cameroon,CMR,2015,Certified free,23344179,,,0,,0,,,,,
Cameroon,CMR,2016,Certified free,,,,,,,,,,,
Cameroon,CMR,2017,Certified free,,,,,,,,,,,
Cameroon,CMR,2018,Certified free,,,,,,,,,,,
Cameroon,CMR,2019,Certified free,,,,,,,,,,,
Cameroon,CMR,2020,Certified free,,,,,,,,,,,
Central African Republic,CAF,1980,Endemic,2274095,,,,,,,,,,
Central African Republic,CAF,1981,Endemic,2340259,,,,,,,,,,
Central African Republic,CAF,1982,Endemic,2411693,,,,,,,,,,
Central African Republic,CAF,1983,Endemic,2485666,,,,,,,,,,
Central African Republic,CAF,1984,Endemic,2558432,,,,,,,,,,
Central African Republic,CAF,1985,Endemic,2627424,,,,,,,,,,
Central African Republic,CAF,1986,Endemic,2691312,,,,,,,,,,
Central African Republic,CAF,1987,Endemic,2751163,,,,,,,,,,
Central African Republic,CAF,1988,Endemic,2809720,,,,,,,,,,
Central African Republic,CAF,1989,Endemic,2871005,,,0,,,,,,,
Central African Republic,CAF,1990,Endemic,2937832,,,0,,,,,,,
Central African Republic,CAF,1991,Endemic,3010950,,,0,,,,,,,
Central African Republic,CAF,1992,Endemic,3089141,,,0,,,,,,,
Central African Republic,CAF,1993,Endemic,3170848,,,0,,,,,,,
Central African Republic,CAF,1994,Endemic,3253698,,,0,,,,,,,
Central African Republic,CAF,1995,Endemic,3335840,,,18,,,,,,,
Central African Republic,CAF,1996,Endemic,3417163,,,9,,7,,,,,
Central African Republic,CAF,1997,Endemic,3497910,,,5,,3,,,,,
Central African Republic,CAF,1998,Endemic,3577028,,,34,,16,,,,,
Central African Republic,CAF,1999,Endemic,3653310,,,26,,15,,,,,
Central African Republic,CAF,2000,Endemic,3726048,,,35,,22,,,,,
Central African Republic,CAF,2001,Precertification stage,3794677,,,36,,22,,,,,
Central African Republic,CAF,2002,Precertification stage,3859784,,,0,,0,,,,,
Central African Republic,CAF,2003,Precertification stage,3923294,,,0,,0,,,,,
Central African Republic,CAF,2004,Precertification stage,3987896,,,0,,0,,,,,
Central African Republic,CAF,2005,Precertification stage,4055608,,,0,,0,,,,,
Central African Republic,CAF,2006,Precertification stage,4127112,,,0,,0,,,,,
Central African Republic,CAF,2007,Precertification stage,4202104,,,0,,0,,,,,
Central African Republic,CAF,2008,Certified free,4280405,,,0,,0,,,,,
Central African Republic,CAF,2009,Certified free,4361492,,,0,,0,,,,,
Central African Republic,CAF,2010,Certified free,4444973,,,0,,0,,,,,
Central African Republic,CAF,2011,Certified free,4530903,,,0,,0,,,,,
Central African Republic,CAF,2012,Certified free,4619500,,,0,,0,,,,,
Central African Republic,CAF,2013,Certified free,4710678,,,0,,0,,,,,
Central African Republic,CAF,2014,Certified free,4804316,,,0,,0,,,,,
Central African Republic,CAF,2015,Certified free,4900274,,,0,,0,,,,,
Central African Republic,CAF,2016,Certified free,,,,,,,,,,,
Central African Republic,CAF,2017,Certified free,,,,,,,,,,,
Central African Republic,CAF,2018,Certified free,,,,,,,,,,,
Central African Republic,CAF,2019,Certified free,,,,,,,,,,,
Central African Republic,CAF,2020,Certified free,,,,,,,,,,,
Chad,TCD,1980,Endemic,4512795,,,,,,,,,,
Chad,TCD,1981,Endemic,4610964,,,,,,,,,,
Chad,TCD,1982,Endemic,4716073,,,,,,,,,,
Chad,TCD,1983,Endemic,4830055,,,,,,,,,,
Chad,TCD,1984,Endemic,4955088,,,,,,,,,,
Chad,TCD,1985,Endemic,5092650,,,,,,,,,,
Chad,TCD,1986,Endemic,5244158,,,314,,,,,,,
Chad,TCD,1987,Endemic,5409275,,,,,,,,,,
Chad,TCD,1988,Endemic,5585528,,,,,,,,,,
Chad,TCD,1989,Endemic,5769273,,,0,,,,,,,
Chad,TCD,1990,Endemic,5958022,,,0,,,,,,,
Chad,TCD,1991,Endemic,6151213,,,0,,,,,,,
Chad,TCD,1992,Endemic,6350174,,,156,,,,,,,
Chad,TCD,1993,Endemic,6556628,,,1231,,,,,,,
Chad,TCD,1994,Endemic,6773104,,,640,,,,,,,
Chad,TCD,1995,Endemic,7001634,,,149,,38,,,,,
Chad,TCD,1996,Endemic,7242018,,,127,,12,,,,,
Chad,TCD,1997,Endemic,7494143,,,25,,10,,,,,
Chad,TCD,1998,Endemic,7760157,,,3,,2,,,,,
Chad,TCD,1999,Endemic,8042713,,,1,,0,,,,,
Chad,TCD,2000,Endemic,8343321,,,3,,1,,,,,
Chad,TCD,2001,Endemic,8663599,,,0,,0,,,,,
Chad,TCD,2002,Endemic,9002102,,,0,,0,,,,,
Chad,TCD,2003,Endemic,9353516,,,0,,0,,,,,
Chad,TCD,2004,Endemic,9710498,,,0,,0,,,,,
Chad,TCD,2005,Endemic,10067932,,,0,,0,,,,,
Chad,TCD,2006,Endemic,10423616,,,0,,0,,,,,
Chad,TCD,2007,Endemic,10779504,,,0,,0,,,,,
Chad,TCD,2008,Endemic,11139740,,,0,,0,0,,,,
Chad,TCD,2009,Endemic,11510535,,,0,,0,0,,,,
Chad,TCD,2010,Endemic,11896380,,3499,10,8,8,0,,,,
Chad,TCD,2011,Endemic,12298512,,1497,10,9,9,47112,,,,
Chad,TCD,2012,Endemic,12715465,,486,10,9,9,345047,,,,
Chad,TCD,2013,Endemic,13145788,,4634,14,10,10,393782,,,,
Chad,TCD,2014,Endemic,13587053,,,13,11,11,512506,,,,
Chad,TCD,2015,Endemic,14037472,,,9,9,11,408072,,,,
Chad,TCD,2016,Endemic,,,,,4,,,,638825,607427,
Chad,TCD,2017,Precertification stage,,,,,,,,,1577426,163248,
Chad,TCD,2018,Precertification stage,,,,,,,,,1349290,139638,
Chad,TCD,2019,Precertification stage,,,,,,,,,793952,82166,
Chad,TCD,2020,Certified free,,,,,,,,,,,
Cote D'Ivoire,CIV,1980,Endemic,8265549,,,,,,,,,,
Cote D'Ivoire,CIV,1981,Endemic,8629121,,,,,,,,,,
Cote D'Ivoire,CIV,1982,Endemic,9002400,,,,,,,,,,
Cote D'Ivoire,CIV,1983,Endemic,9383289,,,,,,,,,,
Cote D'Ivoire,CIV,1984,Endemic,9769105,,,,,,,,,,
Cote D'Ivoire,CIV,1985,Endemic,10158033,,,,,,,,,,
Cote D'Ivoire,CIV,1986,Endemic,10548148,,,,,,,,,,
Cote D'Ivoire,CIV,1987,Endemic,10939987,,,,,,,,,,
Cote D'Ivoire,CIV,1988,Endemic,11337122,,,,,,,,,,
Cote D'Ivoire,CIV,1989,Endemic,11744698,,,,,,,,,,
Cote D'Ivoire,CIV,1990,Endemic,12165909,,,,,,,,,,
Cote D'Ivoire,CIV,1991,Endemic,12600967,,,,,,,,,,
Cote D'Ivoire,CIV,1992,Endemic,13046907,,,,,,,,,,
Cote D'Ivoire,CIV,1993,Endemic,13499696,,,,,,,,,,
Cote D'Ivoire,CIV,1994,Endemic,13953779,,,,,,,,,,
Cote D'Ivoire,CIV,1995,Endemic,14404340,,,3801,,252,,,,,
Cote D'Ivoire,CIV,1996,Endemic,14852193,,,2794,,216,,,,,
Cote D'Ivoire,CIV,1997,Endemic,15296390,,,1254,,115,,,,,
Cote D'Ivoire,CIV,1998,Endemic,15728482,,,1414,,154,,,,,
Cote D'Ivoire,CIV,1999,Endemic,16137824,,,467,,89,,,,,
Cote D'Ivoire,CIV,2000,Endemic,16517948,,,285,,54,,,,,
Cote D'Ivoire,CIV,2001,Endemic,16865376,,,226,,28,,,,,
Cote D'Ivoire,CIV,2002,Endemic,17185421,,,192,,46,,,,,
Cote D'Ivoire,CIV,2003,Endemic,17491539,,,42,,12,,,,,
Cote D'Ivoire,CIV,2004,Endemic,17802516,,,20,,8,,,,,
Cote D'Ivoire,CIV,2005,Endemic,18132702,,,9,,6,,,,,
Cote D'Ivoire,CIV,2006,Endemic,18486392,,,5,,1,,,,,
Cote D'Ivoire,CIV,2007,Endemic,18862172,,,0,,0,,,,,
Cote D'Ivoire,CIV,2008,Precertification stage,19261647,,,0,,0,,,,,
Cote D'Ivoire,CIV,2009,Precertification stage,19684909,,,0,,0,,,,,
Cote D'Ivoire,CIV,2010,Precertification stage,20131707,,,0,,0,,,,,
Cote D'Ivoire,CIV,2011,Precertification stage,20604172,,,0,,0,,,,,
Cote D'Ivoire,CIV,2012,Precertification stage,21102641,,,0,,0,,,,,
Cote D'Ivoire,CIV,2013,Precertification stage,21622490,,,0,,0,,,,,
Cote D'Ivoire,CIV,2014,Certified free,22157107,,,0,,0,,,,,
Cote D'Ivoire,CIV,2015,Certified free,22701556,,,0,,0,,,,,
Cote D'Ivoire,CIV,2016,Certified free,,,,,,,,,,,
Cote D'Ivoire,CIV,2017,Certified free,,,,,,,,,,,
Cote D'Ivoire,CIV,2018,Certified free,,,,,,,,,,,
Cote D'Ivoire,CIV,2019,Certified free,,,,,,,,,,,
Cote D'Ivoire,CIV,2020,Certified free,,,,,,,,,,,
Ethiopia,ETH,1980,Endemic,35239974,,,,,,,,,,
Ethiopia,ETH,1981,Endemic,36093319,,,,,,,,,,
Ethiopia,ETH,1982,Endemic,37109517,,,,,,,,,,
Ethiopia,ETH,1983,Endemic,38259376,,,,,,,,,,
Ethiopia,ETH,1984,Endemic,39493503,,,,,,,,,,
Ethiopia,ETH,1985,Endemic,40775997,,,,,,,,,,
Ethiopia,ETH,1986,Endemic,42097111,,,3385,,,,,,,
Ethiopia,ETH,1987,Endemic,43470219,,,,,,,,,,
Ethiopia,ETH,1988,Endemic,44908705,,,751,,,,,,,
Ethiopia,ETH,1989,Endemic,46433604,,,3565,,,,,,,
Ethiopia,ETH,1990,Endemic,48057094,,,2333,,,,,,,
Ethiopia,ETH,1991,Endemic,49784987,,,0,,,,,,,
Ethiopia,ETH,1992,Endemic,51602776,,,303,,,,,,,
Ethiopia,ETH,1993,Endemic,53477944,,,1120,,,,,,,
Ethiopia,ETH,1994,Endemic,55366517,,,1252,,,,,,,
Ethiopia,ETH,1995,Endemic,57237226,,,514,,77,,,,,
Ethiopia,ETH,1996,Endemic,59076414,,,371,,57,,,,,
Ethiopia,ETH,1997,Endemic,60893264,,,451,,45,,,,,
Ethiopia,ETH,1998,Endemic,62707547,,,366,,46,,,,,
Ethiopia,ETH,1999,Endemic,64550161,,,249,,38,,,,,
Ethiopia,ETH,2000,Endemic,66443603,,,60,,18,,,,,
Ethiopia,ETH,2001,Endemic,68393128,,,29,,10,,,,,
Ethiopia,ETH,2002,Endemic,70391170,,,47,,12,,,,,
Ethiopia,ETH,2003,Endemic,72432290,,,28,,1,,,,,
Ethiopia,ETH,2004,Endemic,74506974,,,17,,13,,,,,
Ethiopia,ETH,2005,Endemic,76608431,,,37,,12,,,,,
Ethiopia,ETH,2006,Endemic,78735675,,,3,,3,,,,,
Ethiopia,ETH,2007,Endemic,80891968,,,3,,3,,,,,
Ethiopia,ETH,2008,Endemic,83079608,28222,,41,12,11,41431,,,,
Ethiopia,ETH,2009,Endemic,85302099,28222,,24,13,9,8005,38784,,,
Ethiopia,ETH,2010,Endemic,87561814,28222,,21,10,11,87633,,,,
Ethiopia,ETH,2011,Endemic,89858696,28222,,8,5,4,89541,,,,
Ethiopia,ETH,2012,Endemic,92191211,51463,,4,4,4,85676,,,,
Ethiopia,ETH,2013,Endemic,94558374,93485,,7,5,5,176361,50400,,,
Ethiopia,ETH,2014,Endemic,96958732,116709,,3,3,3,285739,57778,,,
Ethiopia,ETH,2015,Endemic,99390750,51463,,3,3,3,364949,162592,,,
Ethiopia,ETH,2016,Endemic,,,,,1,,,,676744,300077,
Ethiopia,ETH,2017,Precertification stage,,,,,,,,,1002053,38294,
Ethiopia,ETH,2018,Precertification stage,,,,,,,,,857130,32756,
Ethiopia,ETH,2019,Precertification stage,,,,,,,,,504355,19274,
Ethiopia,ETH,2020,Certified free,,,,,,,,,,,
Ghana,GHA,1980,Endemic,10802025,,,,,,,,,,
Ghana,GHA,1981,Endemic,11117608,,,,,,,,,,
Ghana,GHA,1982,Endemic,11488112,,,,,,,,,,
Ghana,GHA,1983,Endemic,11895130,,,,,,,,,,
Ghana,GHA,1984,Endemic,12311166,,,,,,,,,,
Ghana,GHA,1985,Endemic,12716238,,,,,,,,,,
Ghana,GHA,1986,Endemic,13103975,,,,,,,,,,
Ghana,GHA,1987,Endemic,13480381,,,,,,,,,,
Ghana,GHA,1988,Endemic,13852597,,,,,,,,,,
Ghana,GHA,1989,Endemic,14232493,,,179556,,,,,,,
Ghana,GHA,1990,Endemic,14628260,,,123793,,,,,,,
Ghana,GHA,1991,Endemic,15042736,,,66697,,,,,,,
Ghana,GHA,1992,Endemic,15471527,,,33464,,,,,,,
Ghana,GHA,1993,Endemic,15907244,,,17918,,,,,,,
Ghana,GHA,1994,Endemic,16339344,,,8432,,,,,,,
Ghana,GHA,1995,Endemic,16760991,,,8894,,1057,,,,,
Ghana,GHA,1996,Endemic,17169214,,,4877,,602,,,,,
Ghana,GHA,1997,Endemic,17568583,,,8921,,843,,,,,
Ghana,GHA,1998,Endemic,17969006,,,5473,,629,,,,,
Ghana,GHA,1999,Endemic,18384426,,,9027,,934,,,,,
Ghana,GHA,2000,Endemic,18824994,,,7402,,981,,,,,
Ghana,GHA,2001,Endemic,19293804,,,4739,693,,,,,,
Ghana,GHA,2002,Endemic,19788181,,,5611,703,739,,,,,
Ghana,GHA,2003,Endemic,20305396,,,8290,941,975,,,,,
Ghana,GHA,2004,Endemic,20840493,,,7275,1005,1017,,,,,
Ghana,GHA,2005,Endemic,21389514,,,3981,731,734,,,,,
Ghana,GHA,2006,Endemic,21951891,1074120,3651622,4136,607,346,,,,,
Ghana,GHA,2007,Endemic,22528041,710621,787524,3358,407,180,,,,,
Ghana,GHA,2008,Endemic,23115919,152627,318258,501,131,131,1396578,49792,,,
Ghana,GHA,2009,Endemic,23713164,109685,217882,242,52,52,1111306,,,,
Ghana,GHA,2010,Endemic,24317734,30016,30997,8,4,4,681574,,,,
Ghana,GHA,2011,Endemic,24928503,30016,,0,,0,493598,,,,
Ghana,GHA,2012,Precertification stage,25544565,,,0,,0,0,,,,
Ghana,GHA,2013,Precertification stage,26164432,,,0,,0,0,,,,
Ghana,GHA,2014,Precertification stage,26786598,,,0,,0,0,,,,
Ghana,GHA,2015,Certified free,27409893,,,0,,0,0,,,,
Ghana,GHA,2016,Certified free,,,,,,,,,,,
Ghana,GHA,2017,Certified free,,,,,,,,,,,
Ghana,GHA,2018,Certified free,,,,,,,,,,,
Ghana,GHA,2019,Certified free,,,,,,,,,,,
Ghana,GHA,2020,Certified free,,,,,,,,,,,
Kenya,KEN,1980,Endemic,16267906,,,,,,,,,,
Kenya,KEN,1981,Endemic,16901181,,,,,,,,,,
Kenya,KEN,1982,Endemic,17559778,,,,,,,,,,
Kenya,KEN,1983,Endemic,18241331,,,,,,,,,,
Kenya,KEN,1984,Endemic,18942599,,,,,,,,,,
Kenya,KEN,1985,Endemic,19660713,,,,,,,,,,
Kenya,KEN,1986,Endemic,20393724,,,,,,,,,,
Kenya,KEN,1987,Endemic,21140344,,,,,,,,,,
Kenya,KEN,1988,Endemic,21899004,,,,,,,,,,
Kenya,KEN,1989,Endemic,22668238,,,5,,,,,,,
Kenya,KEN,1990,Endemic,23446229,,,6,,,,,,,
Kenya,KEN,1991,Endemic,24234087,,,0,,,,,,,
Kenya,KEN,1992,Endemic,25029754,,,0,,,,,,,
Kenya,KEN,1993,Endemic,25824736,,,35,,,,,,,
Kenya,KEN,1994,Endemic,26608089,,,53,,,,,,,
Kenya,KEN,1995,Endemic,27373035,,,23,,0,,,,,
Kenya,KEN,1996,Precertification stage,28116027,,,0,,0,,,,,
Kenya,KEN,1997,Precertification stage,28842245,,,6,,,,,,,
Kenya,KEN,1998,Precertification stage,29564614,,,7,,,,,,,
Kenya,KEN,1999,Precertification stage,30301240,,,1,,,,,,,
Kenya,KEN,2000,Precertification stage,31065820,,,4,,,,,,,
Kenya,KEN,2001,Precertification stage,31863280,,,8,,0,,,,,
Kenya,KEN,2002,Precertification stage,32691980,,,17,,,,,,,
Kenya,KEN,2003,Precertification stage,33551079,,,12,,,,,,,
Kenya,KEN,2004,Precertification stage,34437460,,,7,,,,,,,
Kenya,KEN,2005,Precertification stage,35349040,,,2,,1,,,,,
Kenya,KEN,2006,Precertification stage,36286015,,,0,,0,,,,,
Kenya,KEN,2007,Precertification stage,37250540,,,0,,0,,,,,
Kenya,KEN,2008,Precertification stage,38244442,,,0,,0,,,,,
Kenya,KEN,2009,Precertification stage,39269988,,,0,,0,,,,,
Kenya,KEN,2010,Precertification stage,40328313,,,0,,0,,,,,
Kenya,KEN,2011,Precertification stage,41419954,,,0,,0,,,,,
Kenya,KEN,2012,Precertification stage,42542978,,,0,,0,,,,,
Kenya,KEN,2013,Precertification stage,43692881,,,0,,0,,,,,
Kenya,KEN,2014,Precertification stage,44863583,,,0,,0,,,,,
Kenya,KEN,2015,Precertification stage,46050302,,,0,,0,,,,,
Kenya,KEN,2016,Precertification stage,,,,,,,,,,,
Kenya,KEN,2017,Certified free,,,,,,,,,,,
Kenya,KEN,2018,Certified free,,,,,,,,,,,
Kenya,KEN,2019,Certified free,,,,,,,,,,,
Kenya,KEN,2020,Certified free,,,,,,,,,,,
Mali,MLI,1980,Endemic,7090125,,,,,,,,,,
Mali,MLI,1981,Endemic,7233877,,,,,,,,,,
Mali,MLI,1982,Endemic,7386669,,,,,,,,,,
Mali,MLI,1983,Endemic,7542377,,,,,,,,,,
Mali,MLI,1984,Endemic,7692537,,,,,,,,,,
Mali,MLI,1985,Endemic,7831891,,,,,,,,,,
Mali,MLI,1986,Endemic,7957390,,,,,,,,,,
Mali,MLI,1987,Endemic,8073178,,,,,,,,,,
Mali,MLI,1988,Endemic,8189984,,,,,,,,,,
Mali,MLI,1989,Endemic,8322726,,,1111,,,,,,,
Mali,MLI,1990,Endemic,8482075,,,884,,,,,,,
Mali,MLI,1991,Endemic,8672581,,,16024,,,,,,,
Mali,MLI,1992,Endemic,8891141,,,0,,,,,,,
Mali,MLI,1993,Endemic,9131449,,,12011,,,,,,,
Mali,MLI,1994,Endemic,9383608,,,5581,,,,,,,
Mali,MLI,1995,Endemic,9640643,,,4218,,534,,,,,
Mali,MLI,1996,Endemic,9901045,,,2402,,430,,,,,
Mali,MLI,1997,Endemic,10168000,,,1099,,269,,,,,
Mali,MLI,1998,Endemic,10444822,,,650,,177,,,,,
Mali,MLI,1999,Endemic,10736542,,,410,,114,,,,,
Mali,MLI,2000,Endemic,11046926,,,290,,61,,,,,
Mali,MLI,2001,Endemic,11376094,,,718,,120,,,,,
Mali,MLI,2002,Endemic,11723017,,,861,,183,,,,,
Mali,MLI,2003,Endemic,12088867,,,829,,188,,,,,
Mali,MLI,2004,Endemic,12474857,,,357,,121,,,,,
Mali,MLI,2005,Endemic,12881384,,,659,,140,,,,,
Mali,MLI,2006,Endemic,13309942,,,329,88,88,,,,,
Mali,MLI,2007,Endemic,13759226,,,313,71,71,,,,,
Mali,MLI,2008,Endemic,14223403,,,417,69,69,230856,2400,,,
Mali,MLI,2009,Endemic,14694565,,,186,51,52,230939,,,,
Mali,MLI,2010,Endemic,15167286,,,57,22,22,355579,,,,
Mali,MLI,2011,Endemic,15639115,,,12,6,6,404974,64400,,,
Mali,MLI,2012,Endemic,16112333,,,4,3,3,234795,,,,
Mali,MLI,2013,Endemic,16592097,,,11,8,8,109685,,,,
Mali,MLI,2014,Endemic,17086022,,,40,3,3,153232,,,,
Mali,MLI,2015,Endemic,17599694,,,5,3,3,290205,184372,,,
Mali,MLI,2016,Endemic,,,,,,,,,277421,520992,
Mali,MLI,2017,Precertification stage,,,,,,,,,689749,113061,
Mali,MLI,2018,Precertification stage,,,,,,,,,589994,96709,
Mali,MLI,2019,Precertification stage,,,,,,,,,347165,56906,
Mali,MLI,2020,Certified free,,,,,,,,,,,
Mauritania,MRT,1980,Endemic,1534085,,,,,,,,,,
Mauritania,MRT,1981,Endemic,1578585,,,,,,,,,,
Mauritania,MRT,1982,Endemic,1624310,,,,,,,,,,
Mauritania,MRT,1983,Endemic,1671080,,,,,,,,,,
Mauritania,MRT,1984,Endemic,1718641,,,,,,,,,,
Mauritania,MRT,1985,Endemic,1766855,,,,,,,,,,
Mauritania,MRT,1986,Endemic,1815692,,,,,,,,,,
Mauritania,MRT,1987,Endemic,1865356,,,,,,,,,,
Mauritania,MRT,1988,Endemic,1916240,,,,,,,,,,
Mauritania,MRT,1989,Endemic,1968870,,,447,,,,,,,
Mauritania,MRT,1990,Endemic,2023665,,,8036,,,,,,,
Mauritania,MRT,1991,Endemic,2080782,,,0,,,,,,,
Mauritania,MRT,1992,Endemic,2140250,,,1557,,,,,,,
Mauritania,MRT,1993,Endemic,2202201,,,5882,,,,,,,
Mauritania,MRT,1994,Endemic,2266745,,,5029,,,,,,,
Mauritania,MRT,1995,Endemic,2333966,,,1762,,255,,,,,
Mauritania,MRT,1996,Endemic,2403779,,,562,,143,,,,,
Mauritania,MRT,1997,Endemic,2476188,,,388,,83,,,,,
Mauritania,MRT,1998,Endemic,2551429,,,379,,60,,,,,
Mauritania,MRT,1999,Endemic,2629806,,,255,,41,,,,,
Mauritania,MRT,2000,Endemic,2711421,,,136,,22,,,,,
Mauritania,MRT,2001,Endemic,2796502,,,94,,25,,,,,
Mauritania,MRT,2002,Endemic,2884672,,,42,,18,,,,,
Mauritania,MRT,2003,Endemic,2974686,,,13,,9,,,,,
Mauritania,MRT,2004,Endemic,3064882,,,3,,3,,,,,
Mauritania,MRT,2005,Endemic,3154087,,,0,,0,,,,,
Mauritania,MRT,2006,Precertification stage,3241762,,,0,,0,,,,,
Mauritania,MRT,2007,Precertification stage,3328285,,,0,,0,,,,,
Mauritania,MRT,2008,Precertification stage,3414552,,,0,,0,,,,,
Mauritania,MRT,2009,Precertification stage,3501927,,,0,,0,,,,,
Mauritania,MRT,2010,Certified free,3591400,,,0,,0,,,,,
Mauritania,MRT,2011,Certified free,3683221,,,0,,0,,,,,
Mauritania,MRT,2012,Certified free,3777067,,,0,,0,,,,,
Mauritania,MRT,2013,Certified free,3872684,,,0,,0,,,,,
Mauritania,MRT,2014,Certified free,3969625,,,0,,0,,,,,
Mauritania,MRT,2015,Certified free,4067564,,,0,,0,,,,,
Mauritania,MRT,2016,Certified free,,,,0,,,,,,,
Mauritania,MRT,2017,Certified free,,,,,,,,,,,
Mauritania,MRT,2018,Certified free,,,,,,,,,,,
Mauritania,MRT,2019,Certified free,,,,,,,,,,,
Mauritania,MRT,2020,Certified free,,,,,,,,,,,
Niger,NER,1980,Endemic,5963159,,,,,,,,,,
Niger,NER,1981,Endemic,6129762,,,,,,,,,,
Niger,NER,1982,Endemic,6299343,,,,,,,,,,
Niger,NER,1983,Endemic,6472971,,,,,,,,,,
Niger,NER,1984,Endemic,6652110,,,,,,,,,,
Niger,NER,1985,Endemic,6838170,,,,,,,,,,
Niger,NER,1986,Endemic,7031675,,,,,,,,,,
Niger,NER,1987,Endemic,7233482,,,699,,,,,,,
Niger,NER,1988,Endemic,7445788,,,,,,,,,,
Niger,NER,1989,Endemic,7671233,,,288,,,,,,,
Niger,NER,1990,Endemic,7911884,,,0,,,,,,,
Niger,NER,1991,Endemic,8168834,,,32829,,,,,,,
Niger,NER,1992,Endemic,8442330,,,500,,,,,,,
Niger,NER,1993,Endemic,8732500,,,25346,,,,,,,
Niger,NER,1994,Endemic,9039088,,,18562,,,,,,,
Niger,NER,1995,Endemic,9361912,,,13821,,750,,,,,
Niger,NER,1996,Endemic,9701730,,,2956,,416,,,,,
Niger,NER,1997,Endemic,10058960,,,3030,,396,,,,,
Niger,NER,1998,Endemic,10432657,,,2700,,280,,,,,
Niger,NER,1999,Endemic,10821434,,,1920,,170,,,,,
Niger,NER,2000,Endemic,11224523,,,1166,,95,,,,,
Niger,NER,2001,Endemic,11642308,,,417,,50,,,,,
Niger,NER,2002,Endemic,12075991,,,248,,91,,,,,
Niger,NER,2003,Endemic,12526725,,,293,,88,,,,,
Niger,NER,2004,Endemic,12996012,,,240,,75,,,,,
Niger,NER,2005,Endemic,13485436,,,183,,58,,,,,
Niger,NER,2006,Endemic,13995530,,,110,,34,,,,,
Niger,NER,2007,Endemic,14527631,,,14,,9,,,,,
Niger,NER,2008,Endemic,15085130,3822,,3,3,3,197326,,,,
Niger,NER,2009,Endemic,15672194,,,5,3,5,210403,,,,
Niger,NER,2010,Precertification stage,16291990,,,3,3,3,111960,,,,
Niger,NER,2011,Precertification stage,16946485,,,0,,0,0,,,,
Niger,NER,2012,Precertification stage,17635782,,,3,1,1,0,,,,
Niger,NER,2013,Precertification stage,18358863,,,0,,0,0,,,,
Niger,NER,2014,Certified free,19113728,,,0,,0,0,,,,
Niger,NER,2015,Certified free,19899120,,,0,,0,0,,,,
Niger,NER,2016,Certified free,,,,,,,,,,,
Niger,NER,2017,Certified free,,,,,,,,,,,
Niger,NER,2018,Certified free,,,,,,,,,,,
Niger,NER,2019,Certified free,,,,,,,,,,,
Niger,NER,2020,Certified free,,,,,,,,,,,
Nigeria,NGA,1980,Endemic,73698096,,,,,,,,,,
Nigeria,NGA,1981,Endemic,75729572,,,,,,,,,,
Nigeria,NGA,1982,Endemic,77729802,,,,,,,,,,
Nigeria,NGA,1983,Endemic,79729311,,,,,,,,,,
Nigeria,NGA,1984,Endemic,81775215,,,,,,,,,,
Nigeria,NGA,1985,Endemic,83901570,,,,,,,,,,
Nigeria,NGA,1986,Endemic,86118043,,,2821,,,,,,,
Nigeria,NGA,1987,Endemic,88412917,,,216484,,,,,,,
Nigeria,NGA,1988,Endemic,90773613,,,653492,,,,,,,
Nigeria,NGA,1989,Endemic,93179755,,,640008,,,,,,,
Nigeria,NGA,1990,Endemic,95617345,,,394082,,,,,,,
Nigeria,NGA,1991,Endemic,98085436,,,281937,,,,,,,
Nigeria,NGA,1992,Endemic,100592458,,,183169,,,,,,,
Nigeria,NGA,1993,Endemic,103145093,,,75752,,,,,,,
Nigeria,NGA,1994,Endemic,105753088,,,39774,,,,,,,
Nigeria,NGA,1995,Endemic,108424822,,,16374,,1846,,,,,
Nigeria,NGA,1996,Endemic,111164651,,,12282,,1357,,,,,
Nigeria,NGA,1997,Endemic,113975055,,,12590,,1136,,,,,
Nigeria,NGA,1998,Endemic,116860691,,,13420,,1067,,,,,
Nigeria,NGA,1999,Endemic,119826231,,,13237,,1059,,,,,
Nigeria,NGA,2000,Endemic,122876723,,,7869,,906,,,,,
Nigeria,NGA,2001,Endemic,126014935,,,5355,,733,,,,,
Nigeria,NGA,2002,Endemic,129246283,,,3820,,557,,,,,
Nigeria,NGA,2003,Endemic,132581484,,,1459,,280,,,,,
Nigeria,NGA,2004,Endemic,136033321,,,495,1,106,,,,,
Nigeria,NGA,2005,Endemic,139611303,,,120,30,40,,,,,
Nigeria,NGA,2006,Endemic,143318011,,,16,8,10,,,,,
Nigeria,NGA,2007,Endemic,147152502,,,73,4,4,,,,,
Nigeria,NGA,2008,Endemic,151115683,,,38,5,5,13686,27699,,,
Nigeria,NGA,2009,Endemic,155207145,,,0,,0,75229,,,,
Nigeria,NGA,2010,Precertification stage,159424742,,,0,,0,9996,,,,
Nigeria,NGA,2011,Precertification stage,163770669,,,0,,0,0,,,,
Nigeria,NGA,2012,Precertification stage,168240403,,,0,,0,0,,,,
Nigeria,NGA,2013,Precertification stage,172816517,,,0,1,0,0,,,,
Nigeria,NGA,2014,Certified free,177475986,,,0,,0,0,,,,
Nigeria,NGA,2015,Certified free,182201962,,,0,,0,0,,,,
Nigeria,NGA,2016,Certified free,,,,,,,,,,,
Nigeria,NGA,2017,Certified free,,,,,,,,,,,
Nigeria,NGA,2018,Certified free,,,,,,,,,,,
Nigeria,NGA,2019,Certified free,,,,,,,,,,,
Nigeria,NGA,2020,Certified free,,,,,,,,,,,
Senegal,SEN,1980,Endemic,5568651,,,,,,,,,,
Senegal,SEN,1981,Endemic,5723541,,,,,,,,,,
Senegal,SEN,1982,Endemic,5888261,,,,,,,,,,
Senegal,SEN,1983,Endemic,6062682,,,,,,,,,,
Senegal,SEN,1984,Endemic,6246140,,,,,,,,,,
Senegal,SEN,1985,Endemic,6438024,,,,,,,,,,
Senegal,SEN,1986,Endemic,6638186,,,,,,,,,,
Senegal,SEN,1987,Endemic,6846556,,,,,,,,,,
Senegal,SEN,1988,Endemic,7062540,,,,,,,,,,
Senegal,SEN,1989,Endemic,7285378,,,0,,,,,,,
Senegal,SEN,1990,Endemic,7514201,,,38,,,,,,,
Senegal,SEN,1991,Endemic,7749559,,,1341,,,,,,,
Senegal,SEN,1992,Endemic,7990736,,,728,,,,,,,
Senegal,SEN,1993,Endemic,8234147,,,815,,,,,,,
Senegal,SEN,1994,Endemic,8475136,,,195,,,,,,,
Senegal,SEN,1995,Endemic,8710746,,,76,,15,,,,,
Senegal,SEN,1996,Endemic,8939438,,,19,,7,,,,,
Senegal,SEN,1997,Endemic,9163184,,,4,,1,,,,,
Senegal,SEN,1998,Endemic,9386923,,,0,,0,,,,,
Senegal,SEN,1999,Precertification stage,9617641,,,0,,0,,,,,
Senegal,SEN,2000,Precertification stage,9860578,,,0,,0,,,,,
Senegal,SEN,2001,Precertification stage,10118078,,,1,,0,,,,,
Senegal,SEN,2002,Precertification stage,10389457,,,0,,0,,,,,
Senegal,SEN,2003,Precertification stage,10673320,,,0,,0,,,,,
Senegal,SEN,2004,Precertification stage,10967016,,,0,,0,,,,,
Senegal,SEN,2005,Certified free,11268994,,,0,,0,,,,,
Senegal,SEN,2006,Certified free,11578430,,,0,,0,,,,,
Senegal,SEN,2007,Certified free,11897230,,,0,,0,,,,,
Senegal,SEN,2008,Certified free,12229703,,,0,,0,,,,,
Senegal,SEN,2009,Certified free,12581624,,,0,,0,,,,,
Senegal,SEN,2010,Certified free,12956791,,,0,,0,,,,,
Senegal,SEN,2011,Certified free,13357003,,,0,,0,,,,,
Senegal,SEN,2012,Certified free,13780108,,,0,,0,,,,,
Senegal,SEN,2013,Certified free,14221041,,,0,,0,,,,,
Senegal,SEN,2014,Certified free,14672557,,,0,,0,,,,,
Senegal,SEN,2015,Certified free,15129273,,,0,,0,,,,,
Senegal,SEN,2016,Certified free,,,,0,,0,,,,,
Senegal,SEN,2017,Certified free,,,,,,,,,,,
Senegal,SEN,2018,Certified free,,,,,,,,,,,
Senegal,SEN,2019,Certified free,,,,,,,,,,,
Senegal,SEN,2020,Certified free,,,,,,,,,,,
South Sudan,SSD,1980,Endemic,4701360,,,,,,,,,,
South Sudan,SSD,1981,Endemic,4849708,,,,,,,,,,
South Sudan,SSD,1982,Endemic,5007145,,,,,,,,,,
South Sudan,SSD,1983,Endemic,5165623,,,,,,,,,,
South Sudan,SSD,1984,Endemic,5314358,,,,,,,,,,
South Sudan,SSD,1985,Endemic,5444907,,,,,,,,,,
South Sudan,SSD,1986,Endemic,5559804,,,822,,,,,,,
South Sudan,SSD,1987,Endemic,5660153,,,399,,,,,,,
South Sudan,SSD,1988,Endemic,5735170,,,542,,,,,,,
South Sudan,SSD,1989,Endemic,5771305,,,0,,,,,,,
South Sudan,SSD,1990,Endemic,5762190,,,0,,,,,,,
South Sudan,SSD,1991,Endemic,5698998,,,0,,,,,,,
South Sudan,SSD,1992,Endemic,5593347,,,2447,,,,,,,
South Sudan,SSD,1993,Endemic,5484372,,,2984,,,,,,,
South Sudan,SSD,1994,Endemic,5425099,,,53271,,,,,,,
South Sudan,SSD,1995,Endemic,5452771,,,64608,,1932,,,,,
South Sudan,SSD,1996,Endemic,5584223,,,118578,,5466,,,,,
South Sudan,SSD,1997,Endemic,5806951,,,43596,,5744,,,,,
South Sudan,SSD,1998,Endemic,6092688,,,47977,,6494,,,,,
South Sudan,SSD,1999,Endemic,6398416,,,66097,,3824,,,,,
South Sudan,SSD,2000,Endemic,6692999,,,54890,,4775,,,,,
South Sudan,SSD,2001,Endemic,6967817,,,49471,,3921,,,,,
South Sudan,SSD,2002,Endemic,7233237,,,41493,,4333,,,,,
South Sudan,SSD,2003,Endemic,7499695,,,20270,,3407,,,,,
South Sudan,SSD,2004,Endemic,7784488,,,7266,,2145,,,,,
South Sudan,SSD,2005,Endemic,8099908,,,5569,,1087,,,,,
South Sudan,SSD,2006,Endemic,8445659,,,20581,,3346,,,,,
South Sudan,SSD,2007,Endemic,8815495,,,5811,,1998,,,,,
South Sudan,SSD,2008,Endemic,9208598,710178,510235,3618,1243,1243,2599797,94315,,,
South Sudan,SSD,2009,Endemic,9623176,672899,416768,2733,1011,1011,2328788,213255,,,
South Sudan,SSD,2010,Endemic,10056475,618660,271307,1698,732,726,2991491,473565,,,
South Sudan,SSD,2011,Endemic,10510122,502611,146672,1028,463,463,2905435,317825,,,
South Sudan,SSD,2012,Endemic,10980623,284835,72255,521,255,255,3857143,356441,,,
South Sudan,SSD,2013,Endemic,11453810,79940,19662,113,79,79,4145233,452346,,,
South Sudan,SSD,2014,Endemic,11911184,36130,,70,37,37,4070716,106567,,,
South Sudan,SSD,2015,Endemic,12339812,4765,,4,5,37,4340593,107748,,,
South Sudan,SSD,2016,Endemic,,,,,1,,,,2700362,1866154,
South Sudan,SSD,2017,Precertification stage,,,,,,,,,2192187,217400,
South Sudan,SSD,2018,Precertification stage,,,,,,,,,1875141,185958,
South Sudan,SSD,2019,Precertification stage,,,,,,,,,1103374,109422,
South Sudan,SSD,2020,Certified free,,,,,,,,,,,
Sudan,SDN,1980,Endemic,14418063,,,,,,,,,,
Sudan,SDN,1981,Endemic,14935471,,,,,,,,,,
Sudan,SDN,1982,Endemic,15470415,,,,,,,,,,
Sudan,SDN,1983,Endemic,16015120,,,,,,,,,,
Sudan,SDN,1984,Endemic,16559205,,,,,,,,,,
Sudan,SDN,1985,Endemic,17097619,,,,,,,,,,
Sudan,SDN,1986,Endemic,17618852,,,822,,,,,,,
Sudan,SDN,1987,Endemic,18130501,,,399,,,,,,,
Sudan,SDN,1988,Endemic,18669146,,,542,,,,,,,
Sudan,SDN,1989,Endemic,19284633,,,0,,,,,,,
Sudan,SDN,1990,Endemic,20008804,,,0,,,,,,,
Sudan,SDN,1991,Endemic,20861117,,,0,,,,,,,
Sudan,SDN,1992,Endemic,21820588,,,2447,,,,,,,
Sudan,SDN,1993,Endemic,22829227,,,2984,,,,,,,
Sudan,SDN,1994,Endemic,23805536,,,53271,,,,,,,
Sudan,SDN,1995,Endemic,24691970,,,64608,,1932,,,,,
Sudan,SDN,1996,Endemic,25466387,,,118578,,5466,,,,,
Sudan,SDN,1997,Endemic,26149124,,,43596,,5744,,,,,
Sudan,SDN,1998,Endemic,26777059,,,47977,,6494,,,,,
Sudan,SDN,1999,Endemic,27406808,,,66097,,3824,,,,,
Sudan,SDN,2000,Endemic,28079664,,,54890,,4775,,,,,
Sudan,SDN,2001,Endemic,28805142,,,49471,,3921,,,,,
Sudan,SDN,2002,Endemic,29569978,,,41493,,4333,,,,,
Sudan,SDN,2003,Endemic,30365586,,,20270,,3407,,,,,
Sudan,SDN,2004,Endemic,31176209,,,7266,,2145,,,,,
Sudan,SDN,2005,Endemic,31990003,,,5569,,1087,,,,,
Sudan,SDN,2006,Endemic,32809056,,,1,,1,,,,,
Sudan,SDN,2007,Endemic,33637960,,,4,,,,,,,
Sudan,SDN,2008,Endemic,34470138,,,0,,0,180113,,,,
Sudan,SDN,2009,Endemic,35297298,,,0,,0,38400,,,,
Sudan,SDN,2010,Endemic,36114885,,,0,,0,19200,,,,
Sudan,SDN,2011,Endemic,36918193,,,0,,0,17600,87200,,,
Sudan,SDN,2012,Precertification stage,37712420,,,0,,0,0,34000,,,
Sudan,SDN,2013,Precertification stage,38515095,,,3,,1,0,43000,,,
Sudan,SDN,2014,Precertification stage,39350274,,,0,,0,44245,219600,,,
Sudan,SDN,2015,Precertification stage,40234882,,,0,,0,20552,457622,,,
Sudan,SDN,2016,Precertification stage,,,,,,,,,,,
Sudan,SDN,2017,Certified free,,,,,,,,,,,
Sudan,SDN,2018,Certified free,,,,,,,,,,,
Sudan,SDN,2019,Certified free,,,,,,,,,,,
Sudan,SDN,2020,Certified free,,,,,,,,,,,
Togo,TGO,1980,Endemic,2720838,,,,,,,,,,
Togo,TGO,1981,Endemic,2812071,,,,,,,,,,
Togo,TGO,1982,Endemic,2915148,,,,,,,,,,
Togo,TGO,1983,Endemic,3026378,,,,,,,,,,
Togo,TGO,1984,Endemic,3140355,,,,,,,,,,
Togo,TGO,1985,Endemic,3252995,,,,,,,,,,
Togo,TGO,1986,Endemic,3363448,,,1325,,,,,,,
Togo,TGO,1987,Endemic,3472459,,,,,,,,,,
Togo,TGO,1988,Endemic,3579489,,,156,,,,,,,
Togo,TGO,1989,Endemic,3684309,,,2749,,,,,,,
Togo,TGO,1990,Endemic,3786942,,,3042,,,,,,,
Togo,TGO,1991,Endemic,3886858,,,5118,,,,,,,
Togo,TGO,1992,Endemic,3984356,,,8179,,,,,,,
Togo,TGO,1993,Endemic,4081398,,,10349,,,,,,,
Togo,TGO,1994,Endemic,4180689,,,5044,,,,,,,
Togo,TGO,1995,Endemic,4284286,,,2073,,508,,,,,
Togo,TGO,1996,Endemic,4392941,,,1626,,249,,,,,
Togo,TGO,1997,Endemic,4506465,,,1762,,204,,,,,
Togo,TGO,1998,Endemic,4624826,,,2128,,198,,,,,
Togo,TGO,1999,Endemic,4747665,,,1589,,164,,,,,
Togo,TGO,2000,Endemic,4874735,,,828,,147,,,,,
Togo,TGO,2001,Endemic,5006223,,,1354,,180,,,,,
Togo,TGO,2002,Endemic,5142419,,,1502,,228,,,,,
Togo,TGO,2003,Endemic,5283246,,,669,,158,,,,,
Togo,TGO,2004,Endemic,5428552,,,278,,100,,,,,
Togo,TGO,2005,Endemic,5578219,,,73,,26,,,,,
Togo,TGO,2006,Endemic,5732175,,,29,,10,,,,,
Togo,TGO,2007,Endemic,5890414,,,2,,2,,,,,
Togo,TGO,2008,Precertification stage,6052937,,,0,,0,,,,,
Togo,TGO,2009,Precertification stage,6219761,,,0,,0,,,,,
Togo,TGO,2010,Precertification stage,6390851,,,0,,0,,,,,
Togo,TGO,2011,Precertification stage,6566179,,,0,,0,,,,,
Togo,TGO,2012,Certified free,6745581,,,0,,0,,,,,
Togo,TGO,2013,Certified free,6928719,,,0,,0,,,,,
Togo,TGO,2014,Certified free,7115163,,,0,,0,,,,,
Togo,TGO,2015,Certified free,7304578,,,0,,0,,,,,
Togo,TGO,2016,Certified free,,,,,,,,,,,
Togo,TGO,2017,Certified free,,,,,,,,,,,
Togo,TGO,2018,Certified free,,,,,,,,,,,
Togo,TGO,2019,Certified free,,,,,,,,,,,
Togo,TGO,2020,Certified free,,,,,,,,,,,
Uganda,UGA,1980,Endemic,12547754,,,,,,,,,,
Uganda,UGA,1981,Endemic,12927007,,,,,,,,,,
Uganda,UGA,1982,Endemic,13318149,,,,,,,,,,
Uganda,UGA,1983,Endemic,13727427,,,,,,,,,,
Uganda,UGA,1984,Endemic,14163214,,,,,,,,,,
Uganda,UGA,1985,Endemic,14631089,,,,,,,,,,
Uganda,UGA,1986,Endemic,15133740,,,,,,,,,,
Uganda,UGA,1987,Endemic,15668278,,,,,,,,,,
Uganda,UGA,1988,Endemic,16227778,,,,,,,,,,
Uganda,UGA,1989,Endemic,16802258,,,1309,,,,,,,
Uganda,UGA,1990,Endemic,17384369,,,4704,,,,,,,
Uganda,UGA,1991,Endemic,17973428,,,120259,,,,,,,
Uganda,UGA,1992,Endemic,18571527,,,126369,,,,,,,
Uganda,UGA,1993,Endemic,19177660,,,42852,,,,,,,
Uganda,UGA,1994,Endemic,19791266,,,10425,,,,,,,
Uganda,UGA,1995,Endemic,20412967,,,4810,,810,,,,,
Uganda,UGA,1996,Endemic,21041468,,,1455,,326,,,,,
Uganda,UGA,1997,Endemic,21679497,,,1374,,244,,,,,
Uganda,UGA,1998,Endemic,22336812,,,1061,,164,,,,,
Uganda,UGA,1999,Endemic,23026357,,,321,,111,,,,,
Uganda,UGA,2000,Endemic,23757636,,,96,,42,,,,,
Uganda,UGA,2001,Endemic,24534668,,,55,,9,,,,,
Uganda,UGA,2002,Endemic,25355794,,,24,,6,,,,,
Uganda,UGA,2003,Endemic,26217760,,,26,,1,,,,,
Uganda,UGA,2004,Endemic,27114742,,,4,,0,,,,,
Uganda,UGA,2005,Precertification stage,28042413,,,9,,2,,,,,
Uganda,UGA,2006,Precertification stage,29000925,,,2,,0,,,,,
Uganda,UGA,2007,Precertification stage,29991958,,,4,,4,,,,,
Uganda,UGA,2008,Precertification stage,31014427,,,0,,0,0,,,,
Uganda,UGA,2009,Precertification stage,32067125,,,0,,0,0,,,,
Uganda,UGA,2010,Certified free,33149417,,,0,,0,0,,,,
Uganda,UGA,2011,Certified free,34260342,,,0,,0,0,,,,
Uganda,UGA,2012,Certified free,35400620,,,0,,0,9600,,,,
Uganda,UGA,2013,Certified free,36573387,,,0,,0,8000,,,,
Uganda,UGA,2014,Certified free,37782971,,,0,,0,15200,,,,
Uganda,UGA,2015,Certified free,39032383,,,0,,0,0,,,,
Uganda,UGA,2016,Certified free,,,,,,,,,,,
Uganda,UGA,2017,Certified free,,,,,,,,,,,
Uganda,UGA,2018,Certified free,,,,,,,,,,,
Uganda,UGA,2019,Certified free,,,,,,,,,,,
Uganda,UGA,2020,Certified free,,,,,,,,,,,
,GLO,1980,,,,,,,,,,,,
,GLO,1981,,,,,,,,,,,,
,GLO,1982,,,,,,,,,,,,
,GLO,1983,,,,,,,,,,,,
,GLO,1984,,,,,,,,,,,,
,GLO,1985,,,,,,,,,,,,
,GLO,1986,,,,,,,,,,,,
,GLO,1987,,,,,,,,,,,,
,GLO,1988,,,,,,,,,,,,
,GLO,1989,,,,,,,,,,,,
,GLO,1990,,,,,,,,,,,,
,GLO,1991,,,,,,,,,,,,
,GLO,1992,,,,,,,,,,,,
,GLO,1993,,,,,,,,,,,,
,GLO,1994,,,,,,,,,,,,
,GLO,1995,,,,,,,,,,,,
,GLO,1996,,,,,,,,,,,,
,GLO,1997,,,,,,,,,,,,
,GLO,1998,,,,,,,,,,,,
,GLO,1999,,,,,,,,,,,,
,GLO,2000,,,,,,,,,,,,
,GLO,2001,,,,,,,,,,,,
,GLO,2002,,,,,,,,,,,,
,GLO,2003,,,,,,,,,,,,
,GLO,2004,,,,,,,,,,,,
,GLO,2005,,,,,,,,,,,,
,GLO,2006,,,,,,,,,,,,
,GLO,2007,,,,,,,,,,,,
,GLO,2008,,,,,,,,1320700.54,,,,
,GLO,2009,,,,,,,,1271126.02,,,,
,GLO,2010,,,,,,,,1335834.36,,,,
,GLO,2011,,,,,,,,1561996.5,,,,
,GLO,2012,,,,,,,,2712520.8,,,,
,GLO,2013,,,,,,,,3532121.32,,,,
,GLO,2014,,,,,,,,3342403.48,,,,
,GLO,2015,,,,,,,,2913741.79,,,,
,GLO,2016,,,,,,,,,,,,21106648.85
,GLO,2017,,,,,,,,,,,,27658585
,GLO,2018,,,,,,,,,,,,23658445.44
,GLO,2019,,,,,,,,,,,,13921153.74
,GLO,2020,,,,,,,,,,,,7770000
