Country,ISO,Years,Population
c,ISO,yrs,pop
Benin,BEN,1950,  2 255
Benin,BEN,1951,  2 258
Benin,BEN,1952,  2 264
Benin,BEN,1953,  2 274
Benin,BEN,1954,  2 287
Benin,BEN,1955,  2 304
Benin,BEN,1956,  2 323
Benin,BEN,1957,  2 346
Benin,BEN,1958,  2 371
Benin,BEN,1959,  2 400
Benin,BEN,1960,  2 432
Benin,BEN,1961,  2 466
Benin,BEN,1962,  2 503
Benin,BEN,1963,  2 543
Benin,BEN,1964,  2 586
Benin,BEN,1965,  2 632
Benin,BEN,1966,  2 681
Benin,BEN,1967,  2 733
Benin,BEN,1968,  2 789
Benin,BEN,1969,  2 847
Benin,BEN,1970,  2 908
Benin,BEN,1971,  2 972
Benin,BEN,1972,  3 039
Benin,BEN,1973,  3 110
Benin,BEN,1974,  3 185
Benin,BEN,1975,  3 263
Benin,BEN,1976,  3 346
Benin,BEN,1977,  3 432
Benin,BEN,1978,  3 523
Benin,BEN,1979,  3 619
Benin,BEN,1980,  3 718
Benin,BEN,1981,  3 822
Benin,BEN,1982,  3 931
Benin,BEN,1983,  4 045
Benin,BEN,1984,  4 164
Benin,BEN,1985,  4 287
Benin,BEN,1986,  4 414
Benin,BEN,1987,  4 546
Benin,BEN,1988,  4 685
Benin,BEN,1989,  4 836
Benin,BEN,1990,  5 001
Benin,BEN,1991,  5 183
Benin,BEN,1992,  5 378
Benin,BEN,1993,  5 582
Benin,BEN,1994,  5 787
Benin,BEN,1995,  5 986
Benin,BEN,1996,  6 176
Benin,BEN,1997,  6 361
Benin,BEN,1998,  6 546
Benin,BEN,1999,  6 740
Benin,BEN,2000,  6 949
Benin,BEN,2001,  7 175
Benin,BEN,2002,  7 415
Benin,BEN,2003,  7 666
Benin,BEN,2004,  7 923
Benin,BEN,2005,  8 182
Benin,BEN,2006,  8 444
Benin,BEN,2007,  8 708
Benin,BEN,2008,  8 974
Benin,BEN,2009,  9 241
Benin,BEN,2010,  9 510
Benin,BEN,2011,  9 779
Benin,BEN,2012,  10 050
Benin,BEN,2013,  10 322
Benin,BEN,2014,  10 598
Benin,BEN,2015,  10 880
Benin,BEN,2016,  11 167
Benin,BEN,2017,  11 459
Benin,BEN,2018,  11 755
Benin,BEN,2019,  12 056
Benin,BEN,2020,  12 361
Benin,BEN,2021,  12 669
Benin,BEN,2022,  12 981
Benin,BEN,2023,  13 296
Benin,BEN,2024,  13 615
Benin,BEN,2025,  13 937
Benin,BEN,2026,  14 262
Benin,BEN,2027,  14 591
Benin,BEN,2028,  14 922
Benin,BEN,2029,  15 256
Benin,BEN,2030,  15 593
Burkina Faso,BFA,1950,  4 284
Burkina Faso,BFA,1951,  4 324
Burkina Faso,BFA,1952,  4 367
Burkina Faso,BFA,1953,  4 413
Burkina Faso,BFA,1954,  4 463
Burkina Faso,BFA,1955,  4 517
Burkina Faso,BFA,1956,  4 575
Burkina Faso,BFA,1957,  4 636
Burkina Faso,BFA,1958,  4 699
Burkina Faso,BFA,1959,  4 764
Burkina Faso,BFA,1960,  4 829
Burkina Faso,BFA,1961,  4 895
Burkina Faso,BFA,1962,  4 960
Burkina Faso,BFA,1963,  5 028
Burkina Faso,BFA,1964,  5 099
Burkina Faso,BFA,1965,  5 175
Burkina Faso,BFA,1966,  5 256
Burkina Faso,BFA,1967,  5 343
Burkina Faso,BFA,1968,  5 434
Burkina Faso,BFA,1969,  5 528
Burkina Faso,BFA,1970,  5 625
Burkina Faso,BFA,1971,  5 723
Burkina Faso,BFA,1972,  5 825
Burkina Faso,BFA,1973,  5 930
Burkina Faso,BFA,1974,  6 040
Burkina Faso,BFA,1975,  6 155
Burkina Faso,BFA,1976,  6 274
Burkina Faso,BFA,1977,  6 399
Burkina Faso,BFA,1978,  6 531
Burkina Faso,BFA,1979,  6 672
Burkina Faso,BFA,1980,  6 823
Burkina Faso,BFA,1981,  6 985
Burkina Faso,BFA,1982,  7 158
Burkina Faso,BFA,1983,  7 341
Burkina Faso,BFA,1984,  7 531
Burkina Faso,BFA,1985,  7 728
Burkina Faso,BFA,1986,  7 931
Burkina Faso,BFA,1987,  8 140
Burkina Faso,BFA,1988,  8 356
Burkina Faso,BFA,1989,  8 580
Burkina Faso,BFA,1990,  8 811
Burkina Faso,BFA,1991,  9 050
Burkina Faso,BFA,1992,  9 297
Burkina Faso,BFA,1993,  9 552
Burkina Faso,BFA,1994,  9 817
Burkina Faso,BFA,1995,  10 090
Burkina Faso,BFA,1996,  10 373
Burkina Faso,BFA,1997,  10 666
Burkina Faso,BFA,1998,  10 969
Burkina Faso,BFA,1999,  11 283
Burkina Faso,BFA,2000,  11 608
Burkina Faso,BFA,2001,  11 944
Burkina Faso,BFA,2002,  12 291
Burkina Faso,BFA,2003,  12 652
Burkina Faso,BFA,2004,  13 028
Burkina Faso,BFA,2005,  13 422
Burkina Faso,BFA,2006,  13 834
Burkina Faso,BFA,2007,  14 264
Burkina Faso,BFA,2008,  14 709
Burkina Faso,BFA,2009,  15 166
Burkina Faso,BFA,2010,  15 632
Burkina Faso,BFA,2011,  16 107
Burkina Faso,BFA,2012,  16 591
Burkina Faso,BFA,2013,  17 085
Burkina Faso,BFA,2014,  17 589
Burkina Faso,BFA,2015,  18 106
Burkina Faso,BFA,2016,  18 634
Burkina Faso,BFA,2017,  19 173
Burkina Faso,BFA,2018,  19 724
Burkina Faso,BFA,2019,  20 287
Burkina Faso,BFA,2020,  20 861
Burkina Faso,BFA,2021,  21 446
Burkina Faso,BFA,2022,  22 042
Burkina Faso,BFA,2023,  22 650
Burkina Faso,BFA,2024,  23 271
Burkina Faso,BFA,2025,  23 903
Burkina Faso,BFA,2026,  24 548
Burkina Faso,BFA,2027,  25 204
Burkina Faso,BFA,2028,  25 873
Burkina Faso,BFA,2029,  26 553
Burkina Faso,BFA,2030,  27 244
Cameroon,CAM,1950,  4 466
Cameroon,CAM,1951,  4 544
Cameroon,CAM,1952,  4 623
Cameroon,CAM,1953,  4 705
Cameroon,CAM,1954,  4 788
Cameroon,CAM,1955,  4 874
Cameroon,CAM,1956,  4 963
Cameroon,CAM,1957,  5 055
Cameroon,CAM,1958,  5 152
Cameroon,CAM,1959,  5 254
Cameroon,CAM,1960,  5 361
Cameroon,CAM,1961,  5 475
Cameroon,CAM,1962,  5 594
Cameroon,CAM,1963,  5 719
Cameroon,CAM,1964,  5 850
Cameroon,CAM,1965,  5 988
Cameroon,CAM,1966,  6 131
Cameroon,CAM,1967,  6 281
Cameroon,CAM,1968,  6 437
Cameroon,CAM,1969,  6 600
Cameroon,CAM,1970,  6 771
Cameroon,CAM,1971,  6 949
Cameroon,CAM,1972,  7 134
Cameroon,CAM,1973,  7 328
Cameroon,CAM,1974,  7 530
Cameroon,CAM,1975,  7 740
Cameroon,CAM,1976,  7 960
Cameroon,CAM,1977,  8 188
Cameroon,CAM,1978,  8 426
Cameroon,CAM,1979,  8 674
Cameroon,CAM,1980,  8 932
Cameroon,CAM,1981,  9 201
Cameroon,CAM,1982,  9 481
Cameroon,CAM,1983,  9 771
Cameroon,CAM,1984,  10 071
Cameroon,CAM,1985,  10 381
Cameroon,CAM,1986,  10 701
Cameroon,CAM,1987,  11 032
Cameroon,CAM,1988,  11 370
Cameroon,CAM,1989,  11 717
Cameroon,CAM,1990,  12 070
Cameroon,CAM,1991,  12 430
Cameroon,CAM,1992,  12 797
Cameroon,CAM,1993,  13 169
Cameroon,CAM,1994,  13 547
Cameroon,CAM,1995,  13 930
Cameroon,CAM,1996,  14 317
Cameroon,CAM,1997,  14 710
Cameroon,CAM,1998,  15 109
Cameroon,CAM,1999,  15 514
Cameroon,CAM,2000,  15 928
Cameroon,CAM,2001,  16 349
Cameroon,CAM,2002,  16 779
Cameroon,CAM,2003,  17 219
Cameroon,CAM,2004,  17 668
Cameroon,CAM,2005,  18 127
Cameroon,CAM,2006,  18 597
Cameroon,CAM,2007,  19 078
Cameroon,CAM,2008,  19 570
Cameroon,CAM,2009,  20 075
Cameroon,CAM,2010,  20 591
Cameroon,CAM,2011,  21 119
Cameroon,CAM,2012,  21 659
Cameroon,CAM,2013,  22 211
Cameroon,CAM,2014,  22 773
Cameroon,CAM,2015,  23 344
Cameroon,CAM,2016,  23 924
Cameroon,CAM,2017,  24 514
Cameroon,CAM,2018,  25 112
Cameroon,CAM,2019,  25 718
Cameroon,CAM,2020,  26 333
Cameroon,CAM,2021,  26 956
Cameroon,CAM,2022,  27 586
Cameroon,CAM,2023,  28 226
Cameroon,CAM,2024,  28 873
Cameroon,CAM,2025,  29 530
Cameroon,CAM,2026,  30 196
Cameroon,CAM,2027,  30 870
Cameroon,CAM,2028,  31 554
Cameroon,CAM,2029,  32 246
Cameroon,CAM,2030,  32 947
Central African Republic,CAF,1950,  1 327
Central African Republic,CAF,1951,  1 340
Central African Republic,CAF,1952,  1 353
Central African Republic,CAF,1953,  1 368
Central African Republic,CAF,1954,  1 383
Central African Republic,CAF,1955,  1 399
Central African Republic,CAF,1956,  1 417
Central African Republic,CAF,1957,  1 436
Central African Republic,CAF,1958,  1 457
Central African Republic,CAF,1959,  1 479
Central African Republic,CAF,1960,  1 504
Central African Republic,CAF,1961,  1 529
Central African Republic,CAF,1962,  1 557
Central African Republic,CAF,1963,  1 586
Central African Republic,CAF,1964,  1 617
Central African Republic,CAF,1965,  1 649
Central African Republic,CAF,1966,  1 683
Central African Republic,CAF,1967,  1 719
Central African Republic,CAF,1968,  1 755
Central African Republic,CAF,1969,  1 792
Central African Republic,CAF,1970,  1 829
Central African Republic,CAF,1971,  1 865
Central African Republic,CAF,1972,  1 901
Central African Republic,CAF,1973,  1 937
Central African Republic,CAF,1974,  1 976
Central African Republic,CAF,1975,  2 017
Central African Republic,CAF,1976,  2 062
Central African Republic,CAF,1977,  2 108
Central African Republic,CAF,1978,  2 159
Central African Republic,CAF,1979,  2 214
Central African Republic,CAF,1980,  2 274
Central African Republic,CAF,1981,  2 340
Central African Republic,CAF,1982,  2 412
Central African Republic,CAF,1983,  2 486
Central African Republic,CAF,1984,  2 558
Central African Republic,CAF,1985,  2 627
Central African Republic,CAF,1986,  2 691
Central African Republic,CAF,1987,  2 751
Central African Republic,CAF,1988,  2 810
Central African Republic,CAF,1989,  2 871
Central African Republic,CAF,1990,  2 938
Central African Republic,CAF,1991,  3 011
Central African Republic,CAF,1992,  3 089
Central African Republic,CAF,1993,  3 171
Central African Republic,CAF,1994,  3 254
Central African Republic,CAF,1995,  3 336
Central African Republic,CAF,1996,  3 417
Central African Republic,CAF,1997,  3 498
Central African Republic,CAF,1998,  3 577
Central African Republic,CAF,1999,  3 653
Central African Republic,CAF,2000,  3 726
Central African Republic,CAF,2001,  3 795
Central African Republic,CAF,2002,  3 860
Central African Republic,CAF,2003,  3 923
Central African Republic,CAF,2004,  3 988
Central African Republic,CAF,2005,  4 056
Central African Republic,CAF,2006,  4 127
Central African Republic,CAF,2007,  4 202
Central African Republic,CAF,2008,  4 280
Central African Republic,CAF,2009,  4 361
Central African Republic,CAF,2010,  4 445
Central African Republic,CAF,2011,  4 531
Central African Republic,CAF,2012,  4 620
Central African Republic,CAF,2013,  4 711
Central African Republic,CAF,2014,  4 804
Central African Republic,CAF,2015,  4 900
Central African Republic,CAF,2016,  4 998
Central African Republic,CAF,2017,  5 099
Central African Republic,CAF,2018,  5 201
Central African Republic,CAF,2019,  5 304
Central African Republic,CAF,2020,  5 409
Central African Republic,CAF,2021,  5 514
Central African Republic,CAF,2022,  5 620
Central African Republic,CAF,2023,  5 727
Central African Republic,CAF,2024,  5 834
Central African Republic,CAF,2025,  5 942
Central African Republic,CAF,2026,  6 051
Central African Republic,CAF,2027,  6 160
Central African Republic,CAF,2028,  6 269
Central African Republic,CAF,2029,  6 379
Central African Republic,CAF,2030,  6 490
Chad,TCD,1950,  2 502
Chad,TCD,1951,  2 544
Chad,TCD,1952,  2 589
Chad,TCD,1953,  2 637
Chad,TCD,1954,  2 686
Chad,TCD,1955,  2 736
Chad,TCD,1956,  2 787
Chad,TCD,1957,  2 839
Chad,TCD,1958,  2 892
Chad,TCD,1959,  2 946
Chad,TCD,1960,  3 003
Chad,TCD,1961,  3 061
Chad,TCD,1962,  3 122
Chad,TCD,1963,  3 185
Chad,TCD,1964,  3 248
Chad,TCD,1965,  3 311
Chad,TCD,1966,  3 374
Chad,TCD,1967,  3 436
Chad,TCD,1968,  3 501
Chad,TCD,1969,  3 570
Chad,TCD,1970,  3 645
Chad,TCD,1971,  3 727
Chad,TCD,1972,  3 816
Chad,TCD,1973,  3 909
Chad,TCD,1974,  4 001
Chad,TCD,1975,  4 089
Chad,TCD,1976,  4 173
Chad,TCD,1977,  4 255
Chad,TCD,1978,  4 336
Chad,TCD,1979,  4 421
Chad,TCD,1980,  4 513
Chad,TCD,1981,  4 611
Chad,TCD,1982,  4 716
Chad,TCD,1983,  4 830
Chad,TCD,1984,  4 955
Chad,TCD,1985,  5 093
Chad,TCD,1986,  5 244
Chad,TCD,1987,  5 409
Chad,TCD,1988,  5 586
Chad,TCD,1989,  5 769
Chad,TCD,1990,  5 958
Chad,TCD,1991,  6 151
Chad,TCD,1992,  6 350
Chad,TCD,1993,  6 557
Chad,TCD,1994,  6 773
Chad,TCD,1995,  7 002
Chad,TCD,1996,  7 242
Chad,TCD,1997,  7 494
Chad,TCD,1998,  7 760
Chad,TCD,1999,  8 043
Chad,TCD,2000,  8 343
Chad,TCD,2001,  8 664
Chad,TCD,2002,  9 002
Chad,TCD,2003,  9 354
Chad,TCD,2004,  9 710
Chad,TCD,2005,  10 068
Chad,TCD,2006,  10 424
Chad,TCD,2007,  10 780
Chad,TCD,2008,  11 140
Chad,TCD,2009,  11 511
Chad,TCD,2010,  11 896
Chad,TCD,2011,  12 299
Chad,TCD,2012,  12 715
Chad,TCD,2013,  13 146
Chad,TCD,2014,  13 587
Chad,TCD,2015,  14 037
Chad,TCD,2016,  14 497
Chad,TCD,2017,  14 965
Chad,TCD,2018,  15 444
Chad,TCD,2019,  15 932
Chad,TCD,2020,  16 431
Chad,TCD,2021,  16 940
Chad,TCD,2022,  17 460
Chad,TCD,2023,  17 988
Chad,TCD,2024,  18 527
Chad,TCD,2025,  19 075
Chad,TCD,2026,  19 632
Chad,TCD,2027,  20 198
Chad,TCD,2028,  20 773
Chad,TCD,2029,  21 356
Chad,TCD,2030,  21 946
Cote d'Ivoire,CIV,1950,  2 630
Cote d'Ivoire,CIV,1951,  2 693
Cote d'Ivoire,CIV,1952,  2 758
Cote d'Ivoire,CIV,1953,  2 828
Cote d'Ivoire,CIV,1954,  2 901
Cote d'Ivoire,CIV,1955,  2 979
Cote d'Ivoire,CIV,1956,  3 063
Cote d'Ivoire,CIV,1957,  3 153
Cote d'Ivoire,CIV,1958,  3 251
Cote d'Ivoire,CIV,1959,  3 358
Cote d'Ivoire,CIV,1960,  3 475
Cote d'Ivoire,CIV,1961,  3 602
Cote d'Ivoire,CIV,1962,  3 741
Cote d'Ivoire,CIV,1963,  3 890
Cote d'Ivoire,CIV,1964,  4 050
Cote d'Ivoire,CIV,1965,  4 220
Cote d'Ivoire,CIV,1966,  4 400
Cote d'Ivoire,CIV,1967,  4 591
Cote d'Ivoire,CIV,1968,  4 794
Cote d'Ivoire,CIV,1969,  5 011
Cote d'Ivoire,CIV,1970,  5 242
Cote d'Ivoire,CIV,1971,  5 488
Cote d'Ivoire,CIV,1972,  5 748
Cote d'Ivoire,CIV,1973,  6 021
Cote d'Ivoire,CIV,1974,  6 308
Cote d'Ivoire,CIV,1975,  6 606
Cote d'Ivoire,CIV,1976,  6 916
Cote d'Ivoire,CIV,1977,  7 237
Cote d'Ivoire,CIV,1978,  7 570
Cote d'Ivoire,CIV,1979,  7 912
Cote d'Ivoire,CIV,1980,  8 266
Cote d'Ivoire,CIV,1981,  8 629
Cote d'Ivoire,CIV,1982,  9 002
Cote d'Ivoire,CIV,1983,  9 383
Cote d'Ivoire,CIV,1984,  9 769
Cote d'Ivoire,CIV,1985,  10 158
Cote d'Ivoire,CIV,1986,  10 548
Cote d'Ivoire,CIV,1987,  10 940
Cote d'Ivoire,CIV,1988,  11 337
Cote d'Ivoire,CIV,1989,  11 745
Cote d'Ivoire,CIV,1990,  12 166
Cote d'Ivoire,CIV,1991,  12 601
Cote d'Ivoire,CIV,1992,  13 047
Cote d'Ivoire,CIV,1993,  13 500
Cote d'Ivoire,CIV,1994,  13 954
Cote d'Ivoire,CIV,1995,  14 404
Cote d'Ivoire,CIV,1996,  14 852
Cote d'Ivoire,CIV,1997,  15 296
Cote d'Ivoire,CIV,1998,  15 728
Cote d'Ivoire,CIV,1999,  16 138
Cote d'Ivoire,CIV,2000,  16 518
Cote d'Ivoire,CIV,2001,  16 865
Cote d'Ivoire,CIV,2002,  17 185
Cote d'Ivoire,CIV,2003,  17 492
Cote d'Ivoire,CIV,2004,  17 803
Cote d'Ivoire,CIV,2005,  18 133
Cote d'Ivoire,CIV,2006,  18 486
Cote d'Ivoire,CIV,2007,  18 862
Cote d'Ivoire,CIV,2008,  19 262
Cote d'Ivoire,CIV,2009,  19 685
Cote d'Ivoire,CIV,2010,  20 132
Cote d'Ivoire,CIV,2011,  20 604
Cote d'Ivoire,CIV,2012,  21 103
Cote d'Ivoire,CIV,2013,  21 622
Cote d'Ivoire,CIV,2014,  22 157
Cote d'Ivoire,CIV,2015,  22 702
Cote d'Ivoire,CIV,2016,  23 254
Cote d'Ivoire,CIV,2017,  23 816
Cote d'Ivoire,CIV,2018,  24 387
Cote d'Ivoire,CIV,2019,  24 970
Cote d'Ivoire,CIV,2020,  25 566
Cote d'Ivoire,CIV,2021,  26 173
Cote d'Ivoire,CIV,2022,  26 792
Cote d'Ivoire,CIV,2023,  27 423
Cote d'Ivoire,CIV,2024,  28 065
Cote d'Ivoire,CIV,2025,  28 717
Cote d'Ivoire,CIV,2026,  29 380
Cote d'Ivoire,CIV,2027,  30 054
Cote d'Ivoire,CIV,2028,  30 739
Cote d'Ivoire,CIV,2029,  31 435
Cote d'Ivoire,CIV,2030,  32 143
Ethiopia,ETH,1950,  18 128
Ethiopia,ETH,1951,  18 467
Ethiopia,ETH,1952,  18 820
Ethiopia,ETH,1953,  19 184
Ethiopia,ETH,1954,  19 560
Ethiopia,ETH,1955,  19 947
Ethiopia,ETH,1956,  20 348
Ethiopia,ETH,1957,  20 764
Ethiopia,ETH,1958,  21 201
Ethiopia,ETH,1959,  21 662
Ethiopia,ETH,1960,  22 151
Ethiopia,ETH,1961,  22 671
Ethiopia,ETH,1962,  23 221
Ethiopia,ETH,1963,  23 798
Ethiopia,ETH,1964,  24 397
Ethiopia,ETH,1965,  25 014
Ethiopia,ETH,1966,  25 641
Ethiopia,ETH,1967,  26 281
Ethiopia,ETH,1968,  26 945
Ethiopia,ETH,1969,  27 654
Ethiopia,ETH,1970,  28 415
Ethiopia,ETH,1971,  29 246
Ethiopia,ETH,1972,  30 135
Ethiopia,ETH,1973,  31 029
Ethiopia,ETH,1974,  31 855
Ethiopia,ETH,1975,  32 569
Ethiopia,ETH,1976,  33 145
Ethiopia,ETH,1977,  33 614
Ethiopia,ETH,1978,  34 053
Ethiopia,ETH,1979,  34 569
Ethiopia,ETH,1980,  35 240
Ethiopia,ETH,1981,  36 093
Ethiopia,ETH,1982,  37 110
Ethiopia,ETH,1983,  38 259
Ethiopia,ETH,1984,  39 494
Ethiopia,ETH,1985,  40 776
Ethiopia,ETH,1986,  42 097
Ethiopia,ETH,1987,  43 470
Ethiopia,ETH,1988,  44 909
Ethiopia,ETH,1989,  46 434
Ethiopia,ETH,1990,  48 057
Ethiopia,ETH,1991,  49 785
Ethiopia,ETH,1992,  51 603
Ethiopia,ETH,1993,  53 478
Ethiopia,ETH,1994,  55 367
Ethiopia,ETH,1995,  57 237
Ethiopia,ETH,1996,  59 076
Ethiopia,ETH,1997,  60 893
Ethiopia,ETH,1998,  62 708
Ethiopia,ETH,1999,  64 550
Ethiopia,ETH,2000,  66 444
Ethiopia,ETH,2001,  68 393
Ethiopia,ETH,2002,  70 391
Ethiopia,ETH,2003,  72 432
Ethiopia,ETH,2004,  74 507
Ethiopia,ETH,2005,  76 608
Ethiopia,ETH,2006,  78 736
Ethiopia,ETH,2007,  80 892
Ethiopia,ETH,2008,  83 080
Ethiopia,ETH,2009,  85 302
Ethiopia,ETH,2010,  87 562
Ethiopia,ETH,2011,  89 859
Ethiopia,ETH,2012,  92 191
Ethiopia,ETH,2013,  94 558
Ethiopia,ETH,2014,  96 959
Ethiopia,ETH,2015,  99 391
Ethiopia,ETH,2016,  101 853
Ethiopia,ETH,2017,  104 345
Ethiopia,ETH,2018,  106 863
Ethiopia,ETH,2019,  109 406
Ethiopia,ETH,2020,  111 971
Ethiopia,ETH,2021,  114 556
Ethiopia,ETH,2022,  117 158
Ethiopia,ETH,2023,  119 775
Ethiopia,ETH,2024,  122 405
Ethiopia,ETH,2025,  125 044
Ethiopia,ETH,2026,  127 690
Ethiopia,ETH,2027,  130 341
Ethiopia,ETH,2028,  132 995
Ethiopia,ETH,2029,  135 648
Ethiopia,ETH,2030,  138 297
Ghana,GHA,1950,  4 981
Ghana,GHA,1951,  5 068
Ghana,GHA,1952,  5 191
Ghana,GHA,1953,  5 339
Ghana,GHA,1954,  5 504
Ghana,GHA,1955,  5 680
Ghana,GHA,1956,  5 864
Ghana,GHA,1957,  6 052
Ghana,GHA,1958,  6 246
Ghana,GHA,1959,  6 445
Ghana,GHA,1960,  6 652
Ghana,GHA,1961,  6 867
Ghana,GHA,1962,  7 085
Ghana,GHA,1963,  7 303
Ghana,GHA,1964,  7 513
Ghana,GHA,1965,  7 711
Ghana,GHA,1966,  7 891
Ghana,GHA,1967,  8 057
Ghana,GHA,1968,  8 221
Ghana,GHA,1969,  8 397
Ghana,GHA,1970,  8 597
Ghana,GHA,1971,  8 827
Ghana,GHA,1972,  9 084
Ghana,GHA,1973,  9 350
Ghana,GHA,1974,  9 604
Ghana,GHA,1975,  9 831
Ghana,GHA,1976,  10 023
Ghana,GHA,1977,  10 190
Ghana,GHA,1978,  10 354
Ghana,GHA,1979,  10 551
Ghana,GHA,1980,  10 802
Ghana,GHA,1981,  11 118
Ghana,GHA,1982,  11 488
Ghana,GHA,1983,  11 895
Ghana,GHA,1984,  12 311
Ghana,GHA,1985,  12 716
Ghana,GHA,1986,  13 104
Ghana,GHA,1987,  13 480
Ghana,GHA,1988,  13 853
Ghana,GHA,1989,  14 232
Ghana,GHA,1990,  14 628
Ghana,GHA,1991,  15 043
Ghana,GHA,1992,  15 472
Ghana,GHA,1993,  15 907
Ghana,GHA,1994,  16 339
Ghana,GHA,1995,  16 761
Ghana,GHA,1996,  17 169
Ghana,GHA,1997,  17 569
Ghana,GHA,1998,  17 969
Ghana,GHA,1999,  18 384
Ghana,GHA,2000,  18 825
Ghana,GHA,2001,  19 294
Ghana,GHA,2002,  19 788
Ghana,GHA,2003,  20 305
Ghana,GHA,2004,  20 840
Ghana,GHA,2005,  21 390
Ghana,GHA,2006,  21 952
Ghana,GHA,2007,  22 528
Ghana,GHA,2008,  23 116
Ghana,GHA,2009,  23 713
Ghana,GHA,2010,  24 318
Ghana,GHA,2011,  24 929
Ghana,GHA,2012,  25 545
Ghana,GHA,2013,  26 164
Ghana,GHA,2014,  26 787
Ghana,GHA,2015,  27 410
Ghana,GHA,2016,  28 033
Ghana,GHA,2017,  28 657
Ghana,GHA,2018,  29 280
Ghana,GHA,2019,  29 905
Ghana,GHA,2020,  30 530
Ghana,GHA,2021,  31 158
Ghana,GHA,2022,  31 786
Ghana,GHA,2023,  32 416
Ghana,GHA,2024,  33 046
Ghana,GHA,2025,  33 678
Ghana,GHA,2026,  34 312
Ghana,GHA,2027,  34 946
Ghana,GHA,2028,  35 583
Ghana,GHA,2029,  36 223
Ghana,GHA,2030,  36 865
Kenya,KEN,1950,  6 077
Kenya,KEN,1951,  6 240
Kenya,KEN,1952,  6 412
Kenya,KEN,1953,  6 593
Kenya,KEN,1954,  6 782
Kenya,KEN,1955,  6 980
Kenya,KEN,1956,  7 186
Kenya,KEN,1957,  7 401
Kenya,KEN,1958,  7 626
Kenya,KEN,1959,  7 860
Kenya,KEN,1960,  8 105
Kenya,KEN,1961,  8 361
Kenya,KEN,1962,  8 629
Kenya,KEN,1963,  8 908
Kenya,KEN,1964,  9 200
Kenya,KEN,1965,  9 505
Kenya,KEN,1966,  9 823
Kenya,KEN,1967,  10 154
Kenya,KEN,1968,  10 502
Kenya,KEN,1969,  10 868
Kenya,KEN,1970,  11 252
Kenya,KEN,1971,  11 657
Kenya,KEN,1972,  12 083
Kenya,KEN,1973,  12 530
Kenya,KEN,1974,  12 997
Kenya,KEN,1975,  13 486
Kenya,KEN,1976,  13 996
Kenya,KEN,1977,  14 527
Kenya,KEN,1978,  15 082
Kenya,KEN,1979,  15 661
Kenya,KEN,1980,  16 268
Kenya,KEN,1981,  16 901
Kenya,KEN,1982,  17 560
Kenya,KEN,1983,  18 241
Kenya,KEN,1984,  18 943
Kenya,KEN,1985,  19 661
Kenya,KEN,1986,  20 394
Kenya,KEN,1987,  21 140
Kenya,KEN,1988,  21 899
Kenya,KEN,1989,  22 668
Kenya,KEN,1990,  23 446
Kenya,KEN,1991,  24 234
Kenya,KEN,1992,  25 030
Kenya,KEN,1993,  25 825
Kenya,KEN,1994,  26 608
Kenya,KEN,1995,  27 373
Kenya,KEN,1996,  28 116
Kenya,KEN,1997,  28 842
Kenya,KEN,1998,  29 565
Kenya,KEN,1999,  30 301
Kenya,KEN,2000,  31 066
Kenya,KEN,2001,  31 863
Kenya,KEN,2002,  32 692
Kenya,KEN,2003,  33 551
Kenya,KEN,2004,  34 437
Kenya,KEN,2005,  35 349
Kenya,KEN,2006,  36 286
Kenya,KEN,2007,  37 251
Kenya,KEN,2008,  38 244
Kenya,KEN,2009,  39 270
Kenya,KEN,2010,  40 328
Kenya,KEN,2011,  41 420
Kenya,KEN,2012,  42 543
Kenya,KEN,2013,  43 693
Kenya,KEN,2014,  44 864
Kenya,KEN,2015,  46 050
Kenya,KEN,2016,  47 251
Kenya,KEN,2017,  48 467
Kenya,KEN,2018,  49 695
Kenya,KEN,2019,  50 935
Kenya,KEN,2020,  52 187
Kenya,KEN,2021,  53 448
Kenya,KEN,2022,  54 719
Kenya,KEN,2023,  56 001
Kenya,KEN,2024,  57 298
Kenya,KEN,2025,  58 610
Kenya,KEN,2026,  59 939
Kenya,KEN,2027,  61 283
Kenya,KEN,2028,  62 643
Kenya,KEN,2029,  64 020
Kenya,KEN,2030,  65 412
Mali,MLI,1950,  4 708
Mali,MLI,1951,  4 759
Mali,MLI,1952,  4 811
Mali,MLI,1953,  4 865
Mali,MLI,1954,  4 920
Mali,MLI,1955,  4 975
Mali,MLI,1956,  5 032
Mali,MLI,1957,  5 090
Mali,MLI,1958,  5 147
Mali,MLI,1959,  5 205
Mali,MLI,1960,  5 264
Mali,MLI,1961,  5 322
Mali,MLI,1962,  5 381
Mali,MLI,1963,  5 442
Mali,MLI,1964,  5 504
Mali,MLI,1965,  5 568
Mali,MLI,1966,  5 636
Mali,MLI,1967,  5 706
Mali,MLI,1968,  5 781
Mali,MLI,1969,  5 861
Mali,MLI,1970,  5 949
Mali,MLI,1971,  6 045
Mali,MLI,1972,  6 147
Mali,MLI,1973,  6 256
Mali,MLI,1974,  6 368
Mali,MLI,1975,  6 482
Mali,MLI,1976,  6 597
Mali,MLI,1977,  6 713
Mali,MLI,1978,  6 832
Mali,MLI,1979,  6 957
Mali,MLI,1980,  7 090
Mali,MLI,1981,  7 234
Mali,MLI,1982,  7 387
Mali,MLI,1983,  7 542
Mali,MLI,1984,  7 693
Mali,MLI,1985,  7 832
Mali,MLI,1986,  7 957
Mali,MLI,1987,  8 073
Mali,MLI,1988,  8 190
Mali,MLI,1989,  8 323
Mali,MLI,1990,  8 482
Mali,MLI,1991,  8 673
Mali,MLI,1992,  8 891
Mali,MLI,1993,  9 131
Mali,MLI,1994,  9 384
Mali,MLI,1995,  9 641
Mali,MLI,1996,  9 901
Mali,MLI,1997,  10 168
Mali,MLI,1998,  10 445
Mali,MLI,1999,  10 737
Mali,MLI,2000,  11 047
Mali,MLI,2001,  11 376
Mali,MLI,2002,  11 723
Mali,MLI,2003,  12 089
Mali,MLI,2004,  12 475
Mali,MLI,2005,  12 881
Mali,MLI,2006,  13 310
Mali,MLI,2007,  13 759
Mali,MLI,2008,  14 223
Mali,MLI,2009,  14 695
Mali,MLI,2010,  15 167
Mali,MLI,2011,  15 639
Mali,MLI,2012,  16 112
Mali,MLI,2013,  16 592
Mali,MLI,2014,  17 086
Mali,MLI,2015,  17 600
Mali,MLI,2016,  18 135
Mali,MLI,2017,  18 690
Mali,MLI,2018,  19 264
Mali,MLI,2019,  19 853
Mali,MLI,2020,  20 457
Mali,MLI,2021,  21 074
Mali,MLI,2022,  21 707
Mali,MLI,2023,  22 355
Mali,MLI,2024,  23 020
Mali,MLI,2025,  23 702
Mali,MLI,2026,  24 402
Mali,MLI,2027,  25 118
Mali,MLI,2028,  25 852
Mali,MLI,2029,  26 603
Mali,MLI,2030,  27 370
Mauritania,MRT,1950,660
Mauritania,MRT,1951,676
Mauritania,MRT,1952,692
Mauritania,MRT,1953,709
Mauritania,MRT,1954,727
Mauritania,MRT,1955,747
Mauritania,MRT,1956,767
Mauritania,MRT,1957,789
Mauritania,MRT,1958,811
Mauritania,MRT,1959,834
Mauritania,MRT,1960,858
Mauritania,MRT,1961,883
Mauritania,MRT,1962,909
Mauritania,MRT,1963,936
Mauritania,MRT,1964,964
Mauritania,MRT,1965,992
Mauritania,MRT,1966,  1 022
Mauritania,MRT,1967,  1 052
Mauritania,MRT,1968,  1 084
Mauritania,MRT,1969,  1 116
Mauritania,MRT,1970,  1 149
Mauritania,MRT,1971,  1 183
Mauritania,MRT,1972,  1 218
Mauritania,MRT,1973,  1 254
Mauritania,MRT,1974,  1 291
Mauritania,MRT,1975,  1 329
Mauritania,MRT,1976,  1 368
Mauritania,MRT,1977,  1 408
Mauritania,MRT,1978,  1 449
Mauritania,MRT,1979,  1 491
Mauritania,MRT,1980,  1 534
Mauritania,MRT,1981,  1 579
Mauritania,MRT,1982,  1 624
Mauritania,MRT,1983,  1 671
Mauritania,MRT,1984,  1 719
Mauritania,MRT,1985,  1 767
Mauritania,MRT,1986,  1 816
Mauritania,MRT,1987,  1 865
Mauritania,MRT,1988,  1 916
Mauritania,MRT,1989,  1 969
Mauritania,MRT,1990,  2 024
Mauritania,MRT,1991,  2 081
Mauritania,MRT,1992,  2 140
Mauritania,MRT,1993,  2 202
Mauritania,MRT,1994,  2 267
Mauritania,MRT,1995,  2 334
Mauritania,MRT,1996,  2 404
Mauritania,MRT,1997,  2 476
Mauritania,MRT,1998,  2 551
Mauritania,MRT,1999,  2 630
Mauritania,MRT,2000,  2 711
Mauritania,MRT,2001,  2 797
Mauritania,MRT,2002,  2 885
Mauritania,MRT,2003,  2 975
Mauritania,MRT,2004,  3 065
Mauritania,MRT,2005,  3 154
Mauritania,MRT,2006,  3 242
Mauritania,MRT,2007,  3 328
Mauritania,MRT,2008,  3 415
Mauritania,MRT,2009,  3 502
Mauritania,MRT,2010,  3 591
Mauritania,MRT,2011,  3 683
Mauritania,MRT,2012,  3 777
Mauritania,MRT,2013,  3 873
Mauritania,MRT,2014,  3 970
Mauritania,MRT,2015,  4 068
Mauritania,MRT,2016,  4 166
Mauritania,MRT,2017,  4 266
Mauritania,MRT,2018,  4 368
Mauritania,MRT,2019,  4 470
Mauritania,MRT,2020,  4 573
Mauritania,MRT,2021,  4 678
Mauritania,MRT,2022,  4 783
Mauritania,MRT,2023,  4 890
Mauritania,MRT,2024,  4 998
Mauritania,MRT,2025,  5 107
Mauritania,MRT,2026,  5 217
Mauritania,MRT,2027,  5 328
Mauritania,MRT,2028,  5 440
Mauritania,MRT,2029,  5 553
Mauritania,MRT,2030,  5 666
Niger,NER,1950,  2 560
Niger,NER,1951,  2 638
Niger,NER,1952,  2 717
Niger,NER,1953,  2 797
Niger,NER,1954,  2 878
Niger,NER,1955,  2 960
Niger,NER,1956,  3 042
Niger,NER,1957,  3 126
Niger,NER,1958,  3 212
Niger,NER,1959,  3 302
Niger,NER,1960,  3 395
Niger,NER,1961,  3 494
Niger,NER,1962,  3 597
Niger,NER,1963,  3 703
Niger,NER,1964,  3 812
Niger,NER,1965,  3 922
Niger,NER,1966,  4 032
Niger,NER,1967,  4 144
Niger,NER,1968,  4 258
Niger,NER,1969,  4 376
Niger,NER,1970,  4 497
Niger,NER,1971,  4 623
Niger,NER,1972,  4 753
Niger,NER,1973,  4 887
Niger,NER,1974,  5 027
Niger,NER,1975,  5 171
Niger,NER,1976,  5 321
Niger,NER,1977,  5 476
Niger,NER,1978,  5 636
Niger,NER,1979,  5 799
Niger,NER,1980,  5 963
Niger,NER,1981,  6 130
Niger,NER,1982,  6 299
Niger,NER,1983,  6 473
Niger,NER,1984,  6 652
Niger,NER,1985,  6 838
Niger,NER,1986,  7 032
Niger,NER,1987,  7 233
Niger,NER,1988,  7 446
Niger,NER,1989,  7 671
Niger,NER,1990,  7 912
Niger,NER,1991,  8 169
Niger,NER,1992,  8 442
Niger,NER,1993,  8 733
Niger,NER,1994,  9 039
Niger,NER,1995,  9 362
Niger,NER,1996,  9 702
Niger,NER,1997,  10 059
Niger,NER,1998,  10 433
Niger,NER,1999,  10 821
Niger,NER,2000,  11 225
Niger,NER,2001,  11 642
Niger,NER,2002,  12 076
Niger,NER,2003,  12 527
Niger,NER,2004,  12 996
Niger,NER,2005,  13 485
Niger,NER,2006,  13 996
Niger,NER,2007,  14 528
Niger,NER,2008,  15 085
Niger,NER,2009,  15 672
Niger,NER,2010,  16 292
Niger,NER,2011,  16 946
Niger,NER,2012,  17 636
Niger,NER,2013,  18 359
Niger,NER,2014,  19 114
Niger,NER,2015,  19 899
Niger,NER,2016,  20 715
Niger,NER,2017,  21 564
Niger,NER,2018,  22 445
Niger,NER,2019,  23 362
Niger,NER,2020,  24 315
Niger,NER,2021,  25 305
Niger,NER,2022,  26 332
Niger,NER,2023,  27 398
Niger,NER,2024,  28 502
Niger,NER,2025,  29 645
Niger,NER,2026,  30 827
Niger,NER,2027,  32 050
Niger,NER,2028,  33 313
Niger,NER,2029,  34 619
Niger,NER,2030,  35 966
Nigeria,NGA,1950,  37 860
Nigeria,NGA,1951,  38 431
Nigeria,NGA,1952,  39 050
Nigeria,NGA,1953,  39 708
Nigeria,NGA,1954,  40 400
Nigeria,NGA,1955,  41 122
Nigeria,NGA,1956,  41 874
Nigeria,NGA,1957,  42 656
Nigeria,NGA,1958,  43 470
Nigeria,NGA,1959,  44 321
Nigeria,NGA,1960,  45 212
Nigeria,NGA,1961,  46 144
Nigeria,NGA,1962,  47 118
Nigeria,NGA,1963,  48 128
Nigeria,NGA,1964,  49 170
Nigeria,NGA,1965,  50 239
Nigeria,NGA,1966,  51 336
Nigeria,NGA,1967,  52 469
Nigeria,NGA,1968,  53 641
Nigeria,NGA,1969,  54 859
Nigeria,NGA,1970,  56 132
Nigeria,NGA,1971,  57 454
Nigeria,NGA,1972,  58 829
Nigeria,NGA,1973,  60 285
Nigeria,NGA,1974,  61 857
Nigeria,NGA,1975,  63 566
Nigeria,NGA,1976,  65 427
Nigeria,NGA,1977,  67 425
Nigeria,NGA,1978,  69 512
Nigeria,NGA,1979,  71 619
Nigeria,NGA,1980,  73 698
Nigeria,NGA,1981,  75 730
Nigeria,NGA,1982,  77 730
Nigeria,NGA,1983,  79 729
Nigeria,NGA,1984,  81 775
Nigeria,NGA,1985,  83 902
Nigeria,NGA,1986,  86 118
Nigeria,NGA,1987,  88 413
Nigeria,NGA,1988,  90 774
Nigeria,NGA,1989,  93 180
Nigeria,NGA,1990,  95 617
Nigeria,NGA,1991,  98 085
Nigeria,NGA,1992,  100 592
Nigeria,NGA,1993,  103 145
Nigeria,NGA,1994,  105 753
Nigeria,NGA,1995,  108 425
Nigeria,NGA,1996,  111 165
Nigeria,NGA,1997,  113 975
Nigeria,NGA,1998,  116 861
Nigeria,NGA,1999,  119 826
Nigeria,NGA,2000,  122 877
Nigeria,NGA,2001,  126 015
Nigeria,NGA,2002,  129 246
Nigeria,NGA,2003,  132 581
Nigeria,NGA,2004,  136 033
Nigeria,NGA,2005,  139 611
Nigeria,NGA,2006,  143 318
Nigeria,NGA,2007,  147 153
Nigeria,NGA,2008,  151 116
Nigeria,NGA,2009,  155 207
Nigeria,NGA,2010,  159 425
Nigeria,NGA,2011,  163 771
Nigeria,NGA,2012,  168 240
Nigeria,NGA,2013,  172 817
Nigeria,NGA,2014,  177 476
Nigeria,NGA,2015,  182 202
Nigeria,NGA,2016,  186 988
Nigeria,NGA,2017,  191 836
Nigeria,NGA,2018,  196 753
Nigeria,NGA,2019,  201 749
Nigeria,NGA,2020,  206 831
Nigeria,NGA,2021,  212 001
Nigeria,NGA,2022,  217 256
Nigeria,NGA,2023,  222 598
Nigeria,NGA,2024,  228 032
Nigeria,NGA,2025,  233 558
Nigeria,NGA,2026,  239 177
Nigeria,NGA,2027,  244 891
Nigeria,NGA,2028,  250 699
Nigeria,NGA,2029,  256 602
Nigeria,NGA,2030,  262 599
Senegal,SEN,1950,  2 477
Senegal,SEN,1951,  2 530
Senegal,SEN,1952,  2 587
Senegal,SEN,1953,  2 648
Senegal,SEN,1954,  2 713
Senegal,SEN,1955,  2 782
Senegal,SEN,1956,  2 855
Senegal,SEN,1957,  2 931
Senegal,SEN,1958,  3 010
Senegal,SEN,1959,  3 092
Senegal,SEN,1960,  3 178
Senegal,SEN,1961,  3 266
Senegal,SEN,1962,  3 356
Senegal,SEN,1963,  3 450
Senegal,SEN,1964,  3 548
Senegal,SEN,1965,  3 649
Senegal,SEN,1966,  3 754
Senegal,SEN,1967,  3 863
Senegal,SEN,1968,  3 976
Senegal,SEN,1969,  4 094
Senegal,SEN,1970,  4 218
Senegal,SEN,1971,  4 348
Senegal,SEN,1972,  4 485
Senegal,SEN,1973,  4 625
Senegal,SEN,1974,  4 765
Senegal,SEN,1975,  4 900
Senegal,SEN,1976,  5 032
Senegal,SEN,1977,  5 160
Senegal,SEN,1978,  5 289
Senegal,SEN,1979,  5 424
Senegal,SEN,1980,  5 569
Senegal,SEN,1981,  5 724
Senegal,SEN,1982,  5 888
Senegal,SEN,1983,  6 063
Senegal,SEN,1984,  6 246
Senegal,SEN,1985,  6 438
Senegal,SEN,1986,  6 638
Senegal,SEN,1987,  6 847
Senegal,SEN,1988,  7 063
Senegal,SEN,1989,  7 285
Senegal,SEN,1990,  7 514
Senegal,SEN,1991,  7 750
Senegal,SEN,1992,  7 991
Senegal,SEN,1993,  8 234
Senegal,SEN,1994,  8 475
Senegal,SEN,1995,  8 711
Senegal,SEN,1996,  8 939
Senegal,SEN,1997,  9 163
Senegal,SEN,1998,  9 387
Senegal,SEN,1999,  9 618
Senegal,SEN,2000,  9 861
Senegal,SEN,2001,  10 118
Senegal,SEN,2002,  10 389
Senegal,SEN,2003,  10 673
Senegal,SEN,2004,  10 967
Senegal,SEN,2005,  11 269
Senegal,SEN,2006,  11 578
Senegal,SEN,2007,  11 897
Senegal,SEN,2008,  12 230
Senegal,SEN,2009,  12 582
Senegal,SEN,2010,  12 957
Senegal,SEN,2011,  13 357
Senegal,SEN,2012,  13 780
Senegal,SEN,2013,  14 221
Senegal,SEN,2014,  14 673
Senegal,SEN,2015,  15 129
Senegal,SEN,2016,  15 589
Senegal,SEN,2017,  16 054
Senegal,SEN,2018,  16 524
Senegal,SEN,2019,  17 002
Senegal,SEN,2020,  17 487
Senegal,SEN,2021,  17 981
Senegal,SEN,2022,  18 483
Senegal,SEN,2023,  18 993
Senegal,SEN,2024,  19 511
Senegal,SEN,2025,  20 037
Senegal,SEN,2026,  20 571
Senegal,SEN,2027,  21 115
Senegal,SEN,2028,  21 667
Senegal,SEN,2029,  22 229
Senegal,SEN,2030,  22 802
South Sudan,SSD,1950,  2 583
South Sudan,SSD,1951,  2 601
South Sudan,SSD,1952,  2 625
South Sudan,SSD,1953,  2 652
South Sudan,SSD,1954,  2 685
South Sudan,SSD,1955,  2 721
South Sudan,SSD,1956,  2 761
South Sudan,SSD,1957,  2 805
South Sudan,SSD,1958,  2 852
South Sudan,SSD,1959,  2 902
South Sudan,SSD,1960,  2 955
South Sudan,SSD,1961,  3 011
South Sudan,SSD,1962,  3 070
South Sudan,SSD,1963,  3 132
South Sudan,SSD,1964,  3 196
South Sudan,SSD,1965,  3 264
South Sudan,SSD,1966,  3 334
South Sudan,SSD,1967,  3 408
South Sudan,SSD,1968,  3 484
South Sudan,SSD,1969,  3 564
South Sudan,SSD,1970,  3 647
South Sudan,SSD,1971,  3 734
South Sudan,SSD,1972,  3 824
South Sudan,SSD,1973,  3 917
South Sudan,SSD,1974,  4 015
South Sudan,SSD,1975,  4 117
South Sudan,SSD,1976,  4 222
South Sudan,SSD,1977,  4 329
South Sudan,SSD,1978,  4 443
South Sudan,SSD,1979,  4 566
South Sudan,SSD,1980,  4 701
South Sudan,SSD,1981,  4 850
South Sudan,SSD,1982,  5 007
South Sudan,SSD,1983,  5 166
South Sudan,SSD,1984,  5 314
South Sudan,SSD,1985,  5 445
South Sudan,SSD,1986,  5 560
South Sudan,SSD,1987,  5 660
South Sudan,SSD,1988,  5 735
South Sudan,SSD,1989,  5 771
South Sudan,SSD,1990,  5 762
South Sudan,SSD,1991,  5 699
South Sudan,SSD,1992,  5 593
South Sudan,SSD,1993,  5 484
South Sudan,SSD,1994,  5 425
South Sudan,SSD,1995,  5 453
South Sudan,SSD,1996,  5 584
South Sudan,SSD,1997,  5 807
South Sudan,SSD,1998,  6 093
South Sudan,SSD,1999,  6 398
South Sudan,SSD,2000,  6 693
South Sudan,SSD,2001,  6 968
South Sudan,SSD,2002,  7 233
South Sudan,SSD,2003,  7 500
South Sudan,SSD,2004,  7 784
South Sudan,SSD,2005,  8 100
South Sudan,SSD,2006,  8 446
South Sudan,SSD,2007,  8 815
South Sudan,SSD,2008,  9 209
South Sudan,SSD,2009,  9 623
South Sudan,SSD,2010,  10 056
South Sudan,SSD,2011,  10 510
South Sudan,SSD,2012,  10 981
South Sudan,SSD,2013,  11 454
South Sudan,SSD,2014,  11 911
South Sudan,SSD,2015,  12 340
South Sudan,SSD,2016,  12 733
South Sudan,SSD,2017,  13 096
South Sudan,SSD,2018,  13 439
South Sudan,SSD,2019,  13 777
South Sudan,SSD,2020,  14 122
South Sudan,SSD,2021,  14 478
South Sudan,SSD,2022,  14 842
South Sudan,SSD,2023,  15 211
South Sudan,SSD,2024,  15 581
South Sudan,SSD,2025,  15 951
South Sudan,SSD,2026,  16 319
South Sudan,SSD,2027,  16 688
South Sudan,SSD,2028,  17 059
South Sudan,SSD,2029,  17 433
South Sudan,SSD,2030,  17 810
Sudan,SDN,1950,  5 734
Sudan,SDN,1951,  5 884
Sudan,SDN,1952,  6 039
Sudan,SDN,1953,  6 200
Sudan,SDN,1954,  6 368
Sudan,SDN,1955,  6 543
Sudan,SDN,1956,  6 724
Sudan,SDN,1957,  6 913
Sudan,SDN,1958,  7 109
Sudan,SDN,1959,  7 314
Sudan,SDN,1960,  7 527
Sudan,SDN,1961,  7 750
Sudan,SDN,1962,  7 982
Sudan,SDN,1963,  8 224
Sudan,SDN,1964,  8 476
Sudan,SDN,1965,  8 739
Sudan,SDN,1966,  9 013
Sudan,SDN,1967,  9 300
Sudan,SDN,1968,  9 598
Sudan,SDN,1969,  9 909
Sudan,SDN,1970,  10 233
Sudan,SDN,1971,  10 569
Sudan,SDN,1972,  10 918
Sudan,SDN,1973,  11 284
Sudan,SDN,1974,  11 669
Sudan,SDN,1975,  12 076
Sudan,SDN,1976,  12 506
Sudan,SDN,1977,  12 958
Sudan,SDN,1978,  13 430
Sudan,SDN,1979,  13 917
Sudan,SDN,1980,  14 418
Sudan,SDN,1981,  14 935
Sudan,SDN,1982,  15 470
Sudan,SDN,1983,  16 015
Sudan,SDN,1984,  16 559
Sudan,SDN,1985,  17 098
Sudan,SDN,1986,  17 619
Sudan,SDN,1987,  18 131
Sudan,SDN,1988,  18 669
Sudan,SDN,1989,  19 285
Sudan,SDN,1990,  20 009
Sudan,SDN,1991,  20 861
Sudan,SDN,1992,  21 821
Sudan,SDN,1993,  22 829
Sudan,SDN,1994,  23 806
Sudan,SDN,1995,  24 692
Sudan,SDN,1996,  25 466
Sudan,SDN,1997,  26 149
Sudan,SDN,1998,  26 777
Sudan,SDN,1999,  27 407
Sudan,SDN,2000,  28 080
Sudan,SDN,2001,  28 805
Sudan,SDN,2002,  29 570
Sudan,SDN,2003,  30 366
Sudan,SDN,2004,  31 176
Sudan,SDN,2005,  31 990
Sudan,SDN,2006,  32 809
Sudan,SDN,2007,  33 638
Sudan,SDN,2008,  34 470
Sudan,SDN,2009,  35 297
Sudan,SDN,2010,  36 115
Sudan,SDN,2011,  36 918
Sudan,SDN,2012,  37 712
Sudan,SDN,2013,  38 515
Sudan,SDN,2014,  39 350
Sudan,SDN,2015,  40 235
Sudan,SDN,2016,  41 176
Sudan,SDN,2017,  42 166
Sudan,SDN,2018,  43 196
Sudan,SDN,2019,  44 248
Sudan,SDN,2020,  45 308
Sudan,SDN,2021,  46 375
Sudan,SDN,2022,  47 450
Sudan,SDN,2023,  48 535
Sudan,SDN,2024,  49 631
Sudan,SDN,2025,  50 740
Sudan,SDN,2026,  51 862
Sudan,SDN,2027,  52 994
Sudan,SDN,2028,  54 135
Sudan,SDN,2029,  55 285
Sudan,SDN,2030,  56 443
Togo,TGO,1950,  1 395
Togo,TGO,1951,  1 425
Togo,TGO,1952,  1 442
Togo,TGO,1953,  1 452
Togo,TGO,1954,  1 462
Togo,TGO,1955,  1 474
Togo,TGO,1956,  1 491
Togo,TGO,1957,  1 512
Togo,TGO,1958,  1 536
Togo,TGO,1959,  1 560
Togo,TGO,1960,  1 581
Togo,TGO,1961,  1 598
Togo,TGO,1962,  1 613
Togo,TGO,1963,  1 632
Togo,TGO,1964,  1 662
Togo,TGO,1965,  1 709
Togo,TGO,1966,  1 774
Togo,TGO,1967,  1 855
Togo,TGO,1968,  1 946
Togo,TGO,1969,  2 035
Togo,TGO,1970,  2 116
Togo,TGO,1971,  2 186
Togo,TGO,1972,  2 248
Togo,TGO,1973,  2 303
Togo,TGO,1974,  2 357
Togo,TGO,1975,  2 410
Togo,TGO,1976,  2 464
Togo,TGO,1977,  2 519
Togo,TGO,1978,  2 576
Togo,TGO,1979,  2 643
Togo,TGO,1980,  2 721
Togo,TGO,1981,  2 812
Togo,TGO,1982,  2 915
Togo,TGO,1983,  3 026
Togo,TGO,1984,  3 140
Togo,TGO,1985,  3 253
Togo,TGO,1986,  3 363
Togo,TGO,1987,  3 472
Togo,TGO,1988,  3 579
Togo,TGO,1989,  3 684
Togo,TGO,1990,  3 787
Togo,TGO,1991,  3 887
Togo,TGO,1992,  3 984
Togo,TGO,1993,  4 081
Togo,TGO,1994,  4 181
Togo,TGO,1995,  4 284
Togo,TGO,1996,  4 393
Togo,TGO,1997,  4 506
Togo,TGO,1998,  4 625
Togo,TGO,1999,  4 748
Togo,TGO,2000,  4 875
Togo,TGO,2001,  5 006
Togo,TGO,2002,  5 142
Togo,TGO,2003,  5 283
Togo,TGO,2004,  5 429
Togo,TGO,2005,  5 578
Togo,TGO,2006,  5 732
Togo,TGO,2007,  5 890
Togo,TGO,2008,  6 053
Togo,TGO,2009,  6 220
Togo,TGO,2010,  6 391
Togo,TGO,2011,  6 566
Togo,TGO,2012,  6 746
Togo,TGO,2013,  6 929
Togo,TGO,2014,  7 115
Togo,TGO,2015,  7 305
Togo,TGO,2016,  7 497
Togo,TGO,2017,  7 692
Togo,TGO,2018,  7 890
Togo,TGO,2019,  8 090
Togo,TGO,2020,  8 294
Togo,TGO,2021,  8 500
Togo,TGO,2022,  8 708
Togo,TGO,2023,  8 920
Togo,TGO,2024,  9 134
Togo,TGO,2025,  9 352
Togo,TGO,2026,  9 573
Togo,TGO,2027,  9 797
Togo,TGO,2028,  10 025
Togo,TGO,2029,  10 255
Togo,TGO,2030,  10 489
Uganda,UGA,1950,  5 158
Uganda,UGA,1951,  5 309
Uganda,UGA,1952,  5 456
Uganda,UGA,1953,  5 601
Uganda,UGA,1954,  5 748
Uganda,UGA,1955,  5 899
Uganda,UGA,1956,  6 056
Uganda,UGA,1957,  6 221
Uganda,UGA,1958,  6 396
Uganda,UGA,1959,  6 585
Uganda,UGA,1960,  6 788
Uganda,UGA,1961,  7 007
Uganda,UGA,1962,  7 240
Uganda,UGA,1963,  7 487
Uganda,UGA,1964,  7 746
Uganda,UGA,1965,  8 014
Uganda,UGA,1966,  8 293
Uganda,UGA,1967,  8 581
Uganda,UGA,1968,  8 873
Uganda,UGA,1969,  9 163
Uganda,UGA,1970,  9 446
Uganda,UGA,1971,  9 720
Uganda,UGA,1972,  9 988
Uganda,UGA,1973,  10 256
Uganda,UGA,1974,  10 534
Uganda,UGA,1975,  10 827
Uganda,UGA,1976,  11 140
Uganda,UGA,1977,  11 471
Uganda,UGA,1978,  11 818
Uganda,UGA,1979,  12 178
Uganda,UGA,1980,  12 548
Uganda,UGA,1981,  12 927
Uganda,UGA,1982,  13 318
Uganda,UGA,1983,  13 727
Uganda,UGA,1984,  14 163
Uganda,UGA,1985,  14 631
Uganda,UGA,1986,  15 134
Uganda,UGA,1987,  15 668
Uganda,UGA,1988,  16 228
Uganda,UGA,1989,  16 802
Uganda,UGA,1990,  17 384
Uganda,UGA,1991,  17 973
Uganda,UGA,1992,  18 572
Uganda,UGA,1993,  19 178
Uganda,UGA,1994,  19 791
Uganda,UGA,1995,  20 413
Uganda,UGA,1996,  21 041
Uganda,UGA,1997,  21 679
Uganda,UGA,1998,  22 337
Uganda,UGA,1999,  23 026
Uganda,UGA,2000,  23 758
Uganda,UGA,2001,  24 535
Uganda,UGA,2002,  25 356
Uganda,UGA,2003,  26 218
Uganda,UGA,2004,  27 115
Uganda,UGA,2005,  28 042
Uganda,UGA,2006,  29 001
Uganda,UGA,2007,  29 992
Uganda,UGA,2008,  31 014
Uganda,UGA,2009,  32 067
Uganda,UGA,2010,  33 149
Uganda,UGA,2011,  34 260
Uganda,UGA,2012,  35 401
Uganda,UGA,2013,  36 573
Uganda,UGA,2014,  37 783
Uganda,UGA,2015,  39 032
Uganda,UGA,2016,  40 323
Uganda,UGA,2017,  41 653
Uganda,UGA,2018,  43 021
Uganda,UGA,2019,  44 423
Uganda,UGA,2020,  45 856
Uganda,UGA,2021,  47 321
Uganda,UGA,2022,  48 817
Uganda,UGA,2023,  50 345
Uganda,UGA,2024,  51 904
Uganda,UGA,2025,  53 497
Uganda,UGA,2026,  55 121
Uganda,UGA,2027,  56 777
Uganda,UGA,2028,  58 463
Uganda,UGA,2029,  60 181
Uganda,UGA,2030,  61 929
